<?xml version="1.0" encoding="UTF-8" standalone="no"?>
<!-- Created with Keyshape -->
<svg xmlns="http://www.w3.org/2000/svg" xmlns:xlink="http://www.w3.org/1999/xlink" viewBox="0 0 1500 1000" style="white-space: preserve-spaces;">
    <style>
@keyframes a0_t { 0% { transform: translate(524.726642px,622.557033px) scale(0,0) translate(1.533069px,-50.951264px); } 33.3333% { transform: translate(524.726642px,622.557033px) scale(0,0) translate(1.533069px,-50.951264px); animation-timing-function: cubic-bezier(0.42,0,0.58,1); } 50% { transform: translate(524.726642px,622.557033px) scale(1,1) translate(1.533069px,-50.951264px); } 100% { transform: translate(524.726642px,622.557033px) scale(1,1) translate(1.533069px,-50.951264px); } }
@keyframes chat1_t { 0% { transform: translate(1331.683451px,408.850182px) scale(0,0) translate(-161.556701px,-187.385282px); } 16.6666% { transform: translate(1331.683451px,408.850182px) scale(0,0) translate(-161.556701px,-187.385282px); animation-timing-function: cubic-bezier(0.42,0,0.58,1); } 33.3333% { transform: translate(1331.683451px,408.850182px) scale(1,1) translate(-161.556701px,-187.385282px); } 100% { transform: translate(1331.683451px,408.850182px) scale(1,1) translate(-161.556701px,-187.385282px); } }
@keyframes chat2_t { 0% { transform: translate(1158.965109px,406.347018px) scale(0,0) translate(-1.365109px,-75.56751px); } 50% { transform: translate(1158.965109px,406.347018px) scale(0,0) translate(-1.365109px,-75.56751px); animation-timing-function: cubic-bezier(0.42,0,0.58,1); } 66.6666% { transform: translate(1158.965109px,406.347018px) scale(1,1) translate(-1.365109px,-75.56751px); } 100% { transform: translate(1158.965109px,406.347018px) scale(1,1) translate(-1.365109px,-75.56751px); } }
@keyframes chat3_t { 0% { transform: translate(1330.849063px,576.562196px) scale(0,0) translate(-147.349063px,-153.382688px); } 83.3333% { transform: translate(1330.849063px,576.562196px) scale(0,0) translate(-147.349063px,-153.382688px); animation-timing-function: cubic-bezier(0.42,0,0.58,1); } 100% { transform: translate(1330.849063px,576.562196px) scale(1,1) translate(-147.349063px,-153.382688px); } }
@keyframes a1_t { 0% { transform: translate(236.3px,561.921121px) scale(0,0) translate(-236.3px,-561.921121px); } 33.3333% { transform: translate(236.3px,561.921121px) scale(0,0) translate(-236.3px,-561.921121px); animation-timing-function: cubic-bezier(0.42,0,0.58,1); } 50% { transform: translate(236.3px,561.921121px) scale(1,1) translate(-236.3px,-561.921121px); } 100% { transform: translate(236.3px,561.921121px) scale(1,1) translate(-236.3px,-561.921121px); } }
@keyframes a2_t { 0% { transform: translate(235.85px,544.522288px) scale(0,0) translate(-235.85px,-544.522288px); } 50% { transform: translate(235.85px,544.522288px) scale(0,0) translate(-235.85px,-544.522288px); animation-timing-function: cubic-bezier(0.42,0,0.58,1); } 66.6666% { transform: translate(235.85px,544.522288px) scale(1,1) translate(-235.85px,-544.522288px); } 100% { transform: translate(235.85px,544.522288px) scale(1,1) translate(-235.85px,-544.522288px); } }
@keyframes a3_t { 0% { transform: translate(236.75px,578.138917px) scale(0,0) translate(-236.75px,-578.138917px); } 16.6666% { transform: translate(236.75px,578.138917px) scale(0,0) translate(-236.75px,-578.138917px); animation-timing-function: cubic-bezier(0.42,0,0.58,1); } 33.3333% { transform: translate(236.75px,578.138917px) scale(1,1) translate(-236.75px,-578.138917px); } 100% { transform: translate(236.75px,578.138917px) scale(1,1) translate(-236.75px,-578.138917px); } }
@keyframes a4_t { 0% { transform: translate(1135.086793px,578.320988px) scale(0,0) translate(0.772918px,-50.415219px); } 83.3333% { transform: translate(1135.086793px,578.320988px) scale(0,0) translate(0.772918px,-50.415219px); animation-timing-function: cubic-bezier(0.42,0,0.58,1); } 100% { transform: translate(1135.086793px,578.320988px) scale(1,1) translate(0.772918px,-50.415219px); } }
@keyframes a5_t { 0% { transform: translate(714.072783px,436.607122px) scale(0,0) translate(-68.972783px,-87.801353px); } 66.6666% { transform: translate(714.072783px,436.607122px) scale(0,0) translate(-68.972783px,-87.801353px); animation-timing-function: cubic-bezier(0.42,0,0.58,1); } 83.3333% { transform: translate(714.072783px,436.607122px) scale(1,1) translate(-68.972783px,-87.801353px); } 100% { transform: translate(714.072783px,436.607122px) scale(1,1) translate(-68.972783px,-87.801353px); } }
@keyframes a6_t { 0% { transform: translate(236.3px,561.921px) scale(0,0) translate(-236.3px,-561.921px); } 33.3333% { transform: translate(236.3px,561.921px) scale(0,0) translate(-236.3px,-561.921px); animation-timing-function: cubic-bezier(0.42,0,0.58,1); } 50% { transform: translate(236.3px,561.921px) scale(1,1) translate(-236.3px,-561.921px); } 100% { transform: translate(236.3px,561.921px) scale(1,1) translate(-236.3px,-561.921px); } }
@keyframes a7_t { 0% { transform: translate(235.85px,544.522px) scale(0,0) translate(-235.85px,-544.522px); } 50% { transform: translate(235.85px,544.522px) scale(0,0) translate(-235.85px,-544.522px); animation-timing-function: cubic-bezier(0.42,0,0.58,1); } 66.6666% { transform: translate(235.85px,544.522px) scale(1,1) translate(-235.85px,-544.522px); } 100% { transform: translate(235.85px,544.522px) scale(1,1) translate(-235.85px,-544.522px); } }
@keyframes a8_t { 0% { transform: translate(236.75px,578.139px) scale(0,0) translate(-236.75px,-578.139px); } 16.6666% { transform: translate(236.75px,578.139px) scale(0,0) translate(-236.75px,-578.139px); animation-timing-function: cubic-bezier(0.42,0,0.58,1); } 33.3333% { transform: translate(236.75px,578.139px) scale(1,1) translate(-236.75px,-578.139px); } 100% { transform: translate(236.75px,578.139px) scale(1,1) translate(-236.75px,-578.139px); } }
    </style>
    <g id="background">
        <rect class="st0" width="1500" height="1000" fill="none" transform="translate(0,0) translate(5,0)"/>
    </g>
    <g>
        <path class="st1" d="M275.5,635.1L263.8,655.5L188.4,784.6L385.7,801.1L473.3,750.6Z" fill="#E0EBFF"/>
        <g>
            <path class="st1" d="M188.4,512.7L100.2,461.8L187.9,411.2L276,462.1Z" fill="#E0EBFF"/>
            <path class="st2" d="M187.9,513L188.3,702.7L187.9,703L188.4,784.6L276,734L276,675L276,652.1L276,462.1Z" fill="#5C85C9"/>
            <path class="st3" d="M100.2,461.8L100.2,651.8L100.2,674.7L100.2,733.7L188.4,784.6L188.4,512.7Z" fill="#A6C2F0"/>
        </g>
        <path class="st4" d="M100.2,461.8L100.2,625.2L187.9,555.8L188.4,512.7Z" fill="#BDD7FF"/>
        <g>
            <path class="st5" d="M116.2,493.8L107.2,488.6L107.2,478.3L116.2,483.5Z" fill="#6794E0"/>
            <path class="st5" d="M131.3,502.6L122.3,497.4L122.3,487.1L131.3,492.3Z" fill="#6794E0"/>
            <path class="st5" d="M146.3,511.4L137.3,506.2L137.3,495.8L146.3,501Z" fill="#6794E0"/>
            <path class="st5" d="M161.4,520.1L152.4,514.9L152.4,504.6L161.4,509.8Z" fill="#6794E0"/>
            <path class="st5" d="M176.4,528.9L167.5,523.7L167.5,513.4L176.4,518.6Z" fill="#6794E0"/>
        </g>
        <g>
            <path class="st5" d="M116.2,515.1L107.2,509.9L107.2,499.6L116.2,504.8Z" fill="#6794E0"/>
            <path class="st5" d="M131.3,523.8L122.3,518.7L122.3,508.3L131.3,513.5Z" fill="#6794E0"/>
            <path class="st5" d="M146.3,532.6L137.3,527.4L137.3,517.1L146.3,522.3Z" fill="#6794E0"/>
            <path class="st5" d="M161.4,541.4L152.4,536.2L152.4,525.9L161.4,531.1Z" fill="#6794E0"/>
            <path class="st5" d="M176.4,550.1L167.5,545L167.5,534.6L176.4,539.8Z" fill="#6794E0"/>
        </g>
        <g>
            <path class="st5" d="M116.2,536.3L107.2,531.2L107.2,520.8L116.2,526Z" fill="#6794E0"/>
            <path class="st5" d="M131.3,545.1L122.3,539.9L122.3,529.6L131.3,534.8Z" fill="#6794E0"/>
            <path class="st5" d="M146.3,553.9L137.3,548.7L137.3,538.4L146.3,543.6Z" fill="#6794E0"/>
            <path class="st5" d="M161.4,562.6L152.4,557.5L152.4,547.1L161.4,552.3Z" fill="#6794E0"/>
            <path class="st5" d="M176.4,571.4L167.5,566.2L167.5,555.9L176.4,561.1Z" fill="#6794E0"/>
        </g>
        <g>
            <path class="st5" d="M116.2,557.6L107.2,552.4L107.2,542.1L116.2,547.3Z" fill="#6794E0"/>
            <path class="st5" d="M131.3,566.4L122.3,561.2L122.3,550.9L131.3,556.1Z" fill="#6794E0"/>
            <path class="st5" d="M146.3,575.1L137.3,569.9L137.3,559.6L146.3,564.8Z" fill="#6794E0"/>
            <path class="st5" d="M161.4,583.9L152.4,578.7L152.4,568.4L161.4,573.6Z" fill="#6794E0"/>
            <path class="st5" d="M176.4,592.7L167.5,587.5L167.5,577.2L176.4,582.4Z" fill="#6794E0"/>
        </g>
        <g>
            <path class="st5" d="M116.2,578.9L107.2,573.7L107.2,563.4L116.2,568.5Z" fill="#6794E0"/>
            <path class="st5" d="M131.3,587.6L122.3,582.4L122.3,572.1L131.3,577.3Z" fill="#6794E0"/>
            <path class="st5" d="M146.3,596.4L137.3,591.2L137.3,580.9L146.3,586.1Z" fill="#6794E0"/>
            <path class="st5" d="M161.4,605.2L152.4,600L152.4,589.7L161.4,594.8Z" fill="#6794E0"/>
            <path class="st5" d="M176.4,613.9L167.5,608.7L167.5,598.4L176.4,603.6Z" fill="#6794E0"/>
        </g>
        <g>
            <path class="st5" d="M116.2,621.4L107.2,616.2L107.2,605.9L116.2,611.1Z" fill="#6794E0"/>
            <path class="st5" d="M131.3,630.2L122.3,625L122.3,614.6L131.3,619.8Z" fill="#6794E0"/>
            <path class="st5" d="M146.3,638.9L137.3,633.7L137.3,623.4L146.3,628.6Z" fill="#6794E0"/>
            <path class="st5" d="M161.4,647.7L152.4,642.5L152.4,632.2L161.4,637.4Z" fill="#6794E0"/>
            <path class="st5" d="M176.4,656.4L167.5,651.3L167.5,640.9L176.4,646.1Z" fill="#6794E0"/>
        </g>
        <g>
            <path class="st5" d="M116.2,642.6L107.2,637.5L107.2,627.1L116.2,632.3Z" fill="#6794E0"/>
            <path class="st5" d="M131.3,651.4L122.3,646.2L122.3,635.9L131.3,641.1Z" fill="#6794E0"/>
            <path class="st5" d="M146.3,660.2L137.3,655L137.3,644.7L146.3,649.9Z" fill="#6794E0"/>
            <path class="st5" d="M161.4,668.9L152.4,663.8L152.4,653.4L161.4,658.6Z" fill="#6794E0"/>
            <path class="st5" d="M176.4,677.7L167.5,672.5L167.5,662.2L176.4,667.4Z" fill="#6794E0"/>
        </g>
        <g>
            <path class="st5" d="M116.2,663.9L107.2,658.7L107.2,648.4L116.2,653.6Z" fill="#6794E0"/>
            <path class="st5" d="M131.3,672.7L122.3,667.5L122.3,657.2L131.3,662.4Z" fill="#6794E0"/>
            <path class="st5" d="M146.3,681.4L137.3,676.2L137.3,665.9L146.3,671.1Z" fill="#6794E0"/>
            <path class="st5" d="M161.4,690.2L152.4,685L152.4,674.7L161.4,679.9Z" fill="#6794E0"/>
            <path class="st5" d="M176.4,699L167.5,693.8L167.5,683.5L176.4,688.7Z" fill="#6794E0"/>
        </g>
        <g>
            <path class="st5" d="M116.2,685.2L107.2,680L107.2,669.7L116.2,674.8Z" fill="#6794E0"/>
            <path class="st5" d="M131.3,693.9L122.3,688.7L122.3,678.4L131.3,683.6Z" fill="#6794E0"/>
            <path class="st5" d="M146.3,702.7L137.3,697.5L137.3,687.2L146.3,692.4Z" fill="#6794E0"/>
            <path class="st5" d="M161.4,711.5L152.4,706.3L152.4,696L161.4,701.1Z" fill="#6794E0"/>
            <path class="st5" d="M176.4,720.2L167.5,715L167.5,704.7L176.4,709.9Z" fill="#6794E0"/>
        </g>
        <g>
            <path class="st5" d="M116.2,706.4L107.2,701.2L107.2,690.9L116.2,696.1Z" fill="#6794E0"/>
            <path class="st5" d="M131.3,715.2L122.3,710L122.3,699.7L131.3,704.9Z" fill="#6794E0"/>
            <path class="st5" d="M146.3,724L137.3,718.8L137.3,708.5L146.3,713.6Z" fill="#6794E0"/>
            <path class="st5" d="M161.4,732.7L152.4,727.5L152.4,717.2L161.4,722.4Z" fill="#6794E0"/>
            <path class="st5" d="M176.4,741.5L167.5,736.3L167.5,726L176.4,731.2Z" fill="#6794E0"/>
        </g>
        <g>
            <path class="st6" d="M259.7,493.8L268.7,488.6L268.7,478.3L259.7,483.5Z" fill="#4772BA"/>
            <path class="st6" d="M244.6,502.6L253.6,497.4L253.6,487.1L244.6,492.3Z" fill="#4772BA"/>
            <path class="st6" d="M229.5,511.4L238.5,506.2L238.5,495.8L229.5,501Z" fill="#4772BA"/>
            <path class="st6" d="M214.5,520.1L223.5,514.9L223.5,504.6L214.5,509.8Z" fill="#4772BA"/>
            <path class="st6" d="M199.4,528.9L208.4,523.7L208.4,513.4L199.4,518.6Z" fill="#4772BA"/>
        </g>
        <g>
            <path class="st6" d="M259.7,515.1L268.7,509.9L268.7,499.6L259.7,504.8Z" fill="#4772BA"/>
            <path class="st6" d="M244.6,523.8L253.6,518.7L253.6,508.3L244.6,513.5Z" fill="#4772BA"/>
            <path class="st6" d="M229.5,532.6L238.5,527.4L238.5,517.1L229.5,522.3Z" fill="#4772BA"/>
            <path class="st6" d="M214.5,541.4L223.5,536.2L223.5,525.9L214.5,531.1Z" fill="#4772BA"/>
            <path class="st6" d="M199.4,550.1L208.4,545L208.4,534.6L199.4,539.8Z" fill="#4772BA"/>
        </g>
        <g>
            <path class="st6" d="M259.7,536.3L268.7,531.2L268.7,520.8L259.7,526Z" fill="#4772BA"/>
            <path class="st6" d="M244.6,545.1L253.6,539.9L253.6,529.6L244.6,534.8Z" fill="#4772BA"/>
            <path class="st6" d="M229.5,553.9L238.5,548.7L238.5,538.4L229.5,543.6Z" fill="#4772BA"/>
            <path class="st6" d="M214.5,562.6L223.5,557.5L223.5,547.1L214.5,552.3Z" fill="#4772BA"/>
            <path class="st6" d="M199.4,571.4L208.4,566.2L208.4,555.9L199.4,561.1Z" fill="#4772BA"/>
        </g>
        <g>
            <path class="st6" d="M259.7,557.6L268.7,552.4L268.7,542.1L259.7,547.3Z" fill="#4772BA"/>
            <path class="st6" d="M244.6,566.4L253.6,561.2L253.6,550.9L244.6,556.1Z" fill="#4772BA"/>
            <path class="st6" d="M229.5,575.1L238.5,569.9L238.5,559.6L229.5,564.8Z" fill="#4772BA"/>
            <path class="st6" d="M214.5,583.9L223.5,578.7L223.5,568.4L214.5,573.6Z" fill="#4772BA"/>
            <path class="st6" d="M199.4,592.7L208.4,587.5L208.4,577.2L199.4,582.4Z" fill="#4772BA"/>
        </g>
        <g>
            <path class="st6" d="M259.7,578.9L268.7,573.7L268.7,563.4L259.7,568.5Z" fill="#4772BA"/>
            <path class="st6" d="M244.6,587.6L253.6,582.4L253.6,572.1L244.6,577.3Z" fill="#4772BA"/>
            <path class="st6" d="M229.5,596.4L238.5,591.2L238.5,580.9L229.5,586.1Z" fill="#4772BA"/>
            <path class="st6" d="M214.5,605.2L223.5,600L223.5,589.7L214.5,594.8Z" fill="#4772BA"/>
            <path class="st6" d="M199.4,613.9L208.4,608.7L208.4,598.4L199.4,603.6Z" fill="#4772BA"/>
        </g>
        <g>
            <path class="st6" d="M259.7,621.4L268.7,616.2L268.7,605.9L259.7,611.1Z" fill="#4772BA"/>
            <path class="st6" d="M244.6,630.2L253.6,625L253.6,614.6L244.6,619.8Z" fill="#4772BA"/>
            <path class="st6" d="M229.5,638.9L238.5,633.7L238.5,623.4L229.5,628.6Z" fill="#4772BA"/>
            <path class="st6" d="M214.5,647.7L223.5,642.5L223.5,632.2L214.5,637.4Z" fill="#4772BA"/>
            <path class="st6" d="M199.4,656.4L208.4,651.3L208.4,640.9L199.4,646.1Z" fill="#4772BA"/>
        </g>
        <g>
            <path class="st6" d="M259.7,642.6L268.7,637.5L268.7,627.1L259.7,632.3Z" fill="#4772BA"/>
            <path class="st6" d="M244.6,651.4L253.6,646.2L253.6,635.9L244.6,641.1Z" fill="#4772BA"/>
            <path class="st6" d="M229.5,660.2L238.5,655L238.5,644.7L229.5,649.9Z" fill="#4772BA"/>
            <path class="st6" d="M214.5,668.9L223.5,663.8L223.5,653.4L214.5,658.6Z" fill="#4772BA"/>
            <path class="st6" d="M199.4,677.7L208.4,672.5L208.4,662.2L199.4,667.4Z" fill="#4772BA"/>
        </g>
        <g>
            <path class="st6" d="M259.7,663.9L268.7,658.7L268.7,648.4L259.7,653.6Z" fill="#4772BA"/>
            <path class="st6" d="M244.6,672.7L253.6,667.5L253.6,657.2L244.6,662.4Z" fill="#4772BA"/>
            <path class="st6" d="M229.5,681.4L238.5,676.2L238.5,665.9L229.5,671.1Z" fill="#4772BA"/>
            <path class="st6" d="M214.5,690.2L223.5,685L223.5,674.7L214.5,679.9Z" fill="#4772BA"/>
            <path class="st6" d="M199.4,699L208.4,693.8L208.4,683.5L199.4,688.7Z" fill="#4772BA"/>
        </g>
        <g>
            <path class="st6" d="M259.7,685.2L268.7,680L268.7,669.7L259.7,674.8Z" fill="#4772BA"/>
            <path class="st6" d="M244.6,693.9L253.6,688.7L253.6,678.4L244.6,683.6Z" fill="#4772BA"/>
            <path class="st6" d="M229.5,702.7L238.5,697.5L238.5,687.2L229.5,692.4Z" fill="#4772BA"/>
            <path class="st6" d="M214.5,711.5L223.5,706.3L223.5,696L214.5,701.1Z" fill="#4772BA"/>
            <path class="st6" d="M199.4,720.2L208.4,715L208.4,704.7L199.4,709.9Z" fill="#4772BA"/>
        </g>
        <g>
            <path class="st6" d="M259.7,706.4L268.7,701.2L268.7,690.9L259.7,696.1Z" fill="#4772BA"/>
            <path class="st6" d="M244.6,715.2L253.6,710L253.6,699.7L244.6,704.9Z" fill="#4772BA"/>
            <path class="st6" d="M229.5,724L238.5,718.8L238.5,708.5L229.5,713.6Z" fill="#4772BA"/>
            <path class="st6" d="M214.5,732.7L223.5,727.5L223.5,717.2L214.5,722.4Z" fill="#4772BA"/>
            <path class="st6" d="M199.4,741.5L208.4,736.3L208.4,726L199.4,731.2Z" fill="#4772BA"/>
        </g>
        <path class="st7" d="M189.5,493.8L222.5,491.3L263.8,467.8L200.4,430.2L166.7,453.1Z" fill="#BFD3F5"/>
        <g>
            <path class="st1" d="M189.5,476.8L141.8,449.3L189.2,421.9L236.9,449.5Z" fill="#E0EBFF"/>
            <path class="st8" d="M189.5,493.8L189.5,476.8L236.9,449.5L236.9,466.5Z" fill="#7EA0D9"/>
            <path class="st9" d="M141.8,466.3L141.8,449.3L189.5,476.8L189.5,493.8Z" fill="#CDE0FF"/>
        </g>
        <path class="st10" d="M275.5,462.4L188.4,513.3" stroke-linecap="round" stroke-linejoin="round" stroke="#4576CC" stroke-miterlimit="10" fill="none"/>
    </g>
    <ellipse class="st11" rx="83.8" ry="47.4" stroke="#173891" stroke-miterlimit="10" fill="none" transform="translate(0,0) translate(763,600.5)"/>
    <ellipse class="st11" rx="83.8" ry="47.4" stroke="#173891" stroke-miterlimit="10" fill="none" transform="translate(0,0) translate(1077.1,675.6)"/>
    <ellipse class="st11" rx="83.8" ry="47.4" stroke="#173891" stroke-miterlimit="10" fill="none" transform="translate(0,0) translate(745,905.5)"/>
    <ellipse class="st11" rx="83.8" ry="47.4" stroke="#173891" stroke-miterlimit="10" fill="none" transform="translate(0,0) translate(471.9,797.9)"/>
    <path class="st1" d="M625.7,739.3L674.7,766.1C676.3,767,677.6,769.5,677.6,771.7L677.6,805.7L680.1,819.2L667,805.3L625.8,782.8C624.2,781.9,622.9,779.4,622.9,777.2L622.9,741.9C622.8,739.6,624.1,738.5,625.7,739.3Z" fill="#E0EBFF"/>
    <g transform="translate(524.727,622.557) scale(0,0) translate(1.53307,-50.9513)" style="animation: 3s linear infinite both a0_t;">
        <g transform="translate(-526.26,-571.606)">
            <path class="st12" d="M618.3,681.7L571.1,654.4C567.4,652.3,564.5,646.6,564.5,641.7L564.5,613.5C564.5,608.6,567.5,606.4,571.1,608.5L618.3,635.8C622,637.9,624.9,643.6,624.9,648.5L624.9,676.7C624.9,681.6,621.9,683.8,618.3,681.7Z" fill="#1B75BB"/>
            <path class="st12" d="M606.6,675C606.6,675,629.2,692,629,691.4C628.7,690.8,622.5,666.9,622.5,666.9L606.6,675Z" fill="#1B75BB"/>
        </g>
        <g transform="translate(-526.26,-571.606)">
            <path class="st13" d="M585.9,645.6L538.7,618.3C535,616.2,532.1,610.5,532.1,605.6L532.1,577.4C532.1,572.5,535.1,570.3,538.7,572.4L585.9,599.7C589.6,601.8,592.5,607.5,592.5,612.4L592.5,640.6C592.5,645.5,589.5,647.7,585.9,645.6Z" fill="#FCD007"/>
            <path class="st13" d="M532,601.5C532,601.5,525.7,621.7,526.3,621.3C526.8,620.9,543.2,616.2,543.2,616.2L532,601.5Z" fill="#FCD007"/>
        </g>
    </g>
    <path class="st1" d="M1088.6,817.3L1003.6,768.2L919,817L1003.6,865.8L961.7,908.1L1088.4,915.4L1173.4,866.3Z" fill="#E0EBFF"/>
    <path class="st1" d="M960.1,357.9L948.3,378.4L946.7,515.9L1070.3,524L1157.9,473.4Z" fill="#E0EBFF"/>
    <g>
        <g>
            <path class="st2" d="M946.7,515.9L1038.2,463.1L1038.2,240.5L946.1,293.7Z" fill="#5C85C9"/>
            <path class="st1" d="M946.7,293.4L854.5,240.2L946.1,187.3L1038.2,240.5Z" fill="#E0EBFF"/>
            <path class="st14" d="M946.9,282.2L871.9,238.9L946.4,195.9L1021.4,239.2Z" fill="#93B6F0"/>
            <path class="st15" d="M946.1,207.3L1011.2,244.9L1021.1,239.2L946.1,195.9L871.7,238.9L881.5,244.6Z" fill="#6D94D6"/>
            <path class="st15" d="M966.6,250.6L992.4,248.7L1010.6,238.2L964.8,210.9L949.9,221Z" fill="#6D94D6"/>
            <g>
                <path class="st9" d="M966.6,222L966.4,220.7L966.4,220.7L926.5,218.6L926.5,227.5L952.5,242.5L952.5,242.5L966.6,250.6Z" fill="#CDE0FF"/>
                <path class="st16" d="M992.4,226.8L966.4,211.8L966.4,211.8L952.3,203.7L926.5,218.6L952.5,233.6L952.5,233.6L966.6,241.7Z" fill="#AAC5F0"/>
                <path class="st8" d="M966.6,250.6L966.6,241.7L992.4,226.8L992.4,235.7Z" fill="#7EA0D9"/>
            </g>
            <path class="st3" d="M946.7,515.9L854.5,462.7L854.5,240.2L946.7,293.4Z" fill="#A6C2F0"/>
            <path class="st17" d="M854.5,305.9L854.5,240.2L946.7,293.4Z" fill="#BAD4FF"/>
        </g>
        <g>
            <path class="st5" d="M874.4,334.5L860.5,326.5L860.5,310.6L874.4,318.6Z" fill="#6794E0"/>
            <path class="st5" d="M896.5,347.1L882.6,339.1L882.6,323.1L896.5,331.1Z" fill="#6794E0"/>
            <path class="st5" d="M918.6,359.7L904.7,351.6L904.7,335.7L918.6,343.7Z" fill="#6794E0"/>
            <path class="st5" d="M940.7,372.2L926.8,364.2L926.8,348.3L940.7,356.3Z" fill="#6794E0"/>
        </g>
        <g>
            <path class="st5" d="M860.5,270.3L860.5,279.9L860.5,279.9L860.5,286.1L860.5,286.2L860.5,295.8L860.5,302.1L874.4,310.1L874.4,303.8L874.4,294.2L874.4,294.2L874.4,287.9L874.4,287.9L874.4,278.3L874.4,272L860.5,264Z" fill="#6794E0"/>
            <path class="st5" d="M882.6,282.8L882.6,292.4L882.6,292.5L882.6,298.7L882.6,298.8L882.6,308.4L882.6,314.7L896.5,322.7L896.5,316.4L896.5,306.8L896.5,306.7L896.5,300.5L896.5,300.4L896.5,290.9L896.5,284.6L882.6,276.5Z" fill="#6794E0"/>
            <path class="st5" d="M904.7,295.4L904.7,305L904.7,305.1L904.7,311.3L904.7,311.3L904.7,320.9L904.7,327.2L918.6,335.3L918.6,329L918.6,319.4L918.6,319.3L918.6,313.1L918.6,313L918.6,303.4L918.6,297.1L904.7,289.1Z" fill="#6794E0"/>
            <path class="st5" d="M926.8,301.7L926.8,308L926.8,317.6L926.8,317.6L926.8,323.9L926.8,323.9L926.8,333.5L926.8,339.8L940.7,347.8L940.7,341.5L940.7,331.9L940.7,331.9L940.7,325.7L940.7,325.6L940.7,316L940.7,309.7Z" fill="#6794E0"/>
        </g>
        <g>
            <path class="st5" d="M874.4,359.1L860.5,351.1L860.5,335.1L874.4,343.1Z" fill="#6794E0"/>
            <path class="st5" d="M896.5,371.6L882.6,363.6L882.6,347.7L896.5,355.7Z" fill="#6794E0"/>
            <path class="st5" d="M918.6,384.2L904.7,376.2L904.7,360.3L918.6,368.3Z" fill="#6794E0"/>
            <path class="st5" d="M940.7,396.8L926.8,388.8L926.8,372.8L940.7,380.9Z" fill="#6794E0"/>
        </g>
        <g>
            <path class="st5" d="M874.4,383.6L860.5,375.6L860.5,359.7L874.4,367.7Z" fill="#6794E0"/>
            <path class="st5" d="M896.5,396.2L882.6,388.2L882.6,372.2L896.5,380.3Z" fill="#6794E0"/>
            <path class="st5" d="M918.6,408.8L904.7,400.8L904.7,384.8L918.6,392.8Z" fill="#6794E0"/>
            <path class="st5" d="M940.7,421.4L926.8,413.3L926.8,397.4L940.7,405.4Z" fill="#6794E0"/>
        </g>
        <g>
            <path class="st5" d="M874.4,407.6L860.5,399.6L860.5,383.6L874.4,391.7Z" fill="#6794E0"/>
            <path class="st5" d="M896.5,420.2L882.6,412.1L882.6,396.2L896.5,404.2Z" fill="#6794E0"/>
            <path class="st5" d="M918.6,432.7L904.7,424.7L904.7,408.8L918.6,416.8Z" fill="#6794E0"/>
            <path class="st5" d="M940.7,445.3L926.8,437.3L926.8,421.4L940.7,429.4Z" fill="#6794E0"/>
        </g>
        <g>
            <path class="st5" d="M874.4,432.2L860.5,424.1L860.5,408.2L874.4,416.2Z" fill="#6794E0"/>
            <path class="st5" d="M896.5,444.7L882.6,436.7L882.6,420.8L896.5,428.8Z" fill="#6794E0"/>
            <path class="st5" d="M918.6,457.3L904.7,449.3L904.7,433.3L918.6,441.4Z" fill="#6794E0"/>
            <path class="st5" d="M940.7,469.9L926.8,461.9L926.8,445.9L940.7,453.9Z" fill="#6794E0"/>
        </g>
        <g>
            <path class="st5" d="M874.4,456.7L860.5,448.7L860.5,432.7L874.4,440.8Z" fill="#6794E0"/>
            <path class="st5" d="M896.5,469.3L882.6,461.3L882.6,445.3L896.5,453.3Z" fill="#6794E0"/>
            <path class="st5" d="M918.6,481.9L904.7,473.8L904.7,457.9L918.6,465.9Z" fill="#6794E0"/>
            <path class="st5" d="M940.7,494.4L926.8,486.4L926.8,470.5L940.7,478.5Z" fill="#6794E0"/>
        </g>
        <g>
            <path class="st6" d="M1019.4,334.5L1033.3,326.5L1033.3,310.6L1019.4,318.6Z" fill="#4772BA"/>
            <path class="st6" d="M997.3,347.1L1011.2,339.1L1011.2,323.1L997.3,331.1Z" fill="#4772BA"/>
            <path class="st6" d="M975.2,359.7L989.1,351.6L989.1,335.7L975.2,343.7Z" fill="#4772BA"/>
            <path class="st6" d="M953.1,372.2L967,364.2L967,348.3L953.1,356.3Z" fill="#4772BA"/>
        </g>
        <g>
            <path class="st6" d="M1019.4,310.1L1033.3,302.1L1033.3,286.1L1019.4,294.2Z" fill="#4772BA"/>
            <path class="st6" d="M997.3,322.7L1011.2,314.7L1011.2,298.7L997.3,306.7Z" fill="#4772BA"/>
            <path class="st6" d="M975.2,335.3L989.1,327.2L989.1,311.3L975.2,319.3Z" fill="#4772BA"/>
            <path class="st6" d="M953.1,347.8L967,339.8L967,323.9L953.1,331.9Z" fill="#4772BA"/>
        </g>
        <g>
            <path class="st6" d="M1019.4,286L1033.3,278L1033.3,262L1019.4,270.1Z" fill="#4772BA"/>
            <path class="st6" d="M997.3,298.6L1011.2,290.5L1011.2,274.6L997.3,282.6Z" fill="#4772BA"/>
            <path class="st6" d="M975.2,311.1L989.1,303.1L989.1,287.2L975.2,295.2Z" fill="#4772BA"/>
            <path class="st6" d="M953.1,323.7L967,315.7L967,299.8L953.1,307.8Z" fill="#4772BA"/>
        </g>
        <g>
            <path class="st6" d="M1019.4,359.1L1033.3,351.1L1033.3,335.1L1019.4,343.1Z" fill="#4772BA"/>
            <path class="st6" d="M997.3,371.6L1011.2,363.6L1011.2,347.7L997.3,355.7Z" fill="#4772BA"/>
            <path class="st6" d="M975.2,384.2L989.1,376.2L989.1,360.3L975.2,368.3Z" fill="#4772BA"/>
            <path class="st6" d="M953.1,396.8L967,388.8L967,372.8L953.1,380.9Z" fill="#4772BA"/>
        </g>
        <g>
            <path class="st6" d="M1019.4,383.6L1033.3,375.6L1033.3,359.7L1019.4,367.7Z" fill="#4772BA"/>
            <path class="st6" d="M997.3,396.2L1011.2,388.2L1011.2,372.2L997.3,380.3Z" fill="#4772BA"/>
            <path class="st6" d="M975.2,408.8L989.1,400.8L989.1,384.8L975.2,392.8Z" fill="#4772BA"/>
            <path class="st6" d="M953.1,421.4L967,413.3L967,397.4L953.1,405.4Z" fill="#4772BA"/>
        </g>
        <g>
            <path class="st6" d="M1019.4,407.6L1033.3,399.6L1033.3,383.6L1019.4,391.7Z" fill="#4772BA"/>
            <path class="st6" d="M997.3,420.2L1011.2,412.1L1011.2,396.2L997.3,404.2Z" fill="#4772BA"/>
            <path class="st6" d="M975.2,432.7L989.1,424.7L989.1,408.8L975.2,416.8Z" fill="#4772BA"/>
            <path class="st6" d="M953.1,445.3L967,437.3L967,421.4L953.1,429.4Z" fill="#4772BA"/>
        </g>
        <g>
            <path class="st6" d="M1019.4,432.2L1033.3,424.1L1033.3,408.2L1019.4,416.2Z" fill="#4772BA"/>
            <path class="st6" d="M997.3,444.7L1011.2,436.7L1011.2,420.8L997.3,428.8Z" fill="#4772BA"/>
            <path class="st6" d="M975.2,457.3L989.1,449.3L989.1,433.3L975.2,441.4Z" fill="#4772BA"/>
            <path class="st6" d="M953.1,469.9L967,461.9L967,445.9L953.1,453.9Z" fill="#4772BA"/>
        </g>
        <g>
            <path class="st6" d="M1019.4,456.7L1033.3,448.7L1033.3,432.7L1019.4,440.8Z" fill="#4772BA"/>
            <path class="st6" d="M997.3,469.3L1011.2,461.3L1011.2,445.3L997.3,453.3Z" fill="#4772BA"/>
            <path class="st6" d="M975.2,481.9L989.1,473.8L989.1,457.9L975.2,465.9Z" fill="#4772BA"/>
            <path class="st6" d="M953.1,494.4L967,486.4L967,470.5L953.1,478.5Z" fill="#4772BA"/>
        </g>
        <path class="st10" d="M946.7,515.9L946.7,293.4L1038.2,240.5" stroke-linecap="round" stroke-linejoin="round" stroke="#4576CC" stroke-miterlimit="10" fill="none"/>
    </g>
    <g>
        <g>
            <path class="st18" d="M1372.3,667.3L1460.2,614.5C1467.7,609.9,1467.6,598.9,1460,594.4L1199.2,439.4L1164.9,547.8L1372.3,667.3Z" fill="#A8C4E5" opacity="0.29"/>
            <path class="st19" d="M1359.6,674.7L1176.3,553.1C1164.8,546.5,1155.5,528.7,1155.5,513.4L1155.5,113.3C1155.5,98,1164.8,91,1176.3,97.6L1367.7,208.1C1379.2,214.7,1388.5,232.5,1388.5,247.8L1388.5,646C1388.5,656.1,1384.7,660.2,1378.4,663.9L1359.6,674.7Z" fill="#A8C9ED"/>
            <path class="st20" d="M1253.6,298.9C1253.6,298.9,1155.5,528.4,1155.5,513.1L1139.4,108.6L1163.5,95.9C1167,94.2,1171.5,94.6,1176.3,97.4L1367.7,207.9C1373.3,211.1,1378.4,217,1382.1,224L1253.6,298.9Z" fill="#EBF3FF"/>
            <path class="st0" d="M1348.4,673.4L1157.5,562.9C1146,556.3,1137.2,538.5,1137.2,523.2L1137.2,123.2C1137.2,107.9,1146.3,100.9,1157.7,107.5L1348.5,218C1360,224.6,1368.7,242.4,1368.7,257.7L1368.7,657.8C1368.7,673,1359.9,680,1348.4,673.4Z" fill="#FFFFFF"/>
            <path class="st12" d="M1344.6,674.8L1153.7,564.3C1142.2,557.7,1133.4,539.9,1133.4,524.6L1133.4,124.6C1133.4,109.3,1142.5,102.3,1153.9,108.9L1344.7,219.4C1356.2,226,1364.9,243.8,1364.9,259.1L1364.9,659.2C1364.9,674.4,1356.1,681.4,1344.6,674.8Z" fill="#1B75BB"/>
            <path class="st21" d="M1339.3,606.4L1153.2,499C1151.3,497.9,1150.1,495.8,1150.1,493.6L1150.1,155.7C1150.1,150.9,1155.3,147.9,1159.5,150.3L1345.6,257.8C1347.5,258.9,1348.7,261,1348.7,263.2L1348.7,601C1348.7,605.8,1343.5,608.8,1339.3,606.4Z" fill="#29ABE2"/>
            <path class="st12" d="M1281.7,209L1222.7,174.9C1220.6,173.7,1218.9,170.5,1218.9,167.7L1218.9,167.7C1218.9,164.9,1220.6,163.7,1222.7,164.9L1281.7,199C1283.8,200.2,1285.5,203.4,1285.5,206.2L1285.5,206.2C1285.5,209,1283.8,210.2,1281.7,209Z" fill="#1B75BB"/>
        </g>
        <g>
            <path class="st23" d="M1377.9,313.7L1377.9,313.7C1374.8,315,1372.2,313.4,1372.2,310L1372.2,287.2C1372.2,283.8,1374.8,280,1377.9,278.6L1377.9,278.6C1381,277.3,1383.6,278.9,1383.6,282.3L1383.6,305.1C1383.6,308.5,1381,312.4,1377.9,313.7Z" fill="#E6F0FF"/>
            <path class="st24" d="M1380.3,314L1380.3,314C1377.2,315.3,1374.6,313.7,1374.6,310.3L1374.6,287.5C1374.6,284.1,1377.2,280.3,1380.3,278.9L1380.3,278.9C1383.4,277.6,1386,279.2,1386,282.6L1386,305.4C1386,308.8,1383.5,312.7,1380.3,314Z" fill="#6899E3"/>
            <path class="st23" d="M1377.9,355.2L1377.9,355.2C1374.8,356.5,1372.2,354.9,1372.2,351.5L1372.2,328.7C1372.2,325.3,1374.8,321.5,1377.9,320.1L1377.9,320.1C1381,318.8,1383.6,320.4,1383.6,323.8L1383.6,346.6C1383.6,350,1381,353.9,1377.9,355.2Z" fill="#E6F0FF"/>
            <path class="st24" d="M1380.3,355.5L1380.3,355.5C1377.2,356.8,1374.6,355.2,1374.6,351.8L1374.6,329C1374.6,325.6,1377.2,321.8,1380.3,320.4L1380.3,320.4C1383.4,319.1,1386,320.7,1386,324.1L1386,346.9C1386,350.3,1383.5,354.2,1380.3,355.5Z" fill="#6899E3"/>
        </g>
    </g>
    <g>
        <path class="st25" d="M754.6,398.5C754.6,403.1,758.4,406.9,763,406.9C767.6,406.9,771.4,403.1,771.4,398.5C771.4,393.9,767.6,390.1,763,390.1C758.4,390.1,754.6,393.9,754.6,398.5Z" fill="#333333"/>
        <ellipse class="st26" rx="35.9" ry="18.8" fill="#E8EEFA" transform="translate(0,0) translate(758.6,603)"/>
        <path class="st27" d="M730.2,433.8L717.5,460.9L722.8,466.9L740.5,437.9Z" fill="#FFC2B0"/>
        <path class="st12" d="M735.5,597.1L746.2,587.5C747.6,586.8,750.7,586.6,752.8,587C753.7,587.2,754.4,588,754.4,588.9L754.4,590.9C754.6,593.8,754.3,594.3,752.4,595.2L741.4,600.9C739.5,601.9,736.8,601.8,735.3,600.9L734.9,600.6C733.4,599.7,733.6,598.1,735.5,597.1Z" fill="#1B75BB"/>
        <path class="st27" d="M735.7,503.7L747,587.2C747.5,592.4,753.2,590.6,753.6,587.4L754.2,512L735.7,503.7Z" fill="#FFC2B0"/>
        <path class="st12" d="M778.5,611.2L777.8,596.8C778.1,595.3,779.9,592.7,781.5,591.4C782.2,590.8,783.3,590.8,784,591.4L785.6,592.6C788,594.3,788.1,594.8,787.7,596.8L785.2,608.9C784.8,610.9,783,613.1,781.3,613.6L780.8,613.8C779.1,614.4,778,613.2,778.5,611.2Z" fill="#1B75BB"/>
        <path class="st27" d="M758.6,512.5L761.1,548.7C761.7,556.9,763.7,565,767,572.5L777.7,596.9C778.1,602.3,783.5,594.7,784,591.4L776.3,562.4C776,561.1,775.8,559.7,775.8,558.4L776.7,521.6L758.6,512.5Z" fill="#FFC2B0"/>
        <path class="st27" d="M761.3,415.8C761.3,421.4,753.9,423.8,749,420.9C744.1,418,743.5,411.1,743.5,405.5C743.5,399.9,751.2,397.8,756.1,400.7C760.9,403.5,761.3,410.1,761.3,415.8Z" fill="#FFC2B0"/>
        <path class="st12" d="M734.5,443.1L726.1,439.3L731.5,428.5C732,427.9,732.5,427.3,733,426.8C737.9,421.5,745.6,419.7,752.3,422.5C756.6,424.2,763.2,428.4,769.6,432C787.6,442.2,781.8,460.5,781.8,460.5L779.7,464.9L776.7,457.4L775.8,462.7C774.5,470,775,477.4,777.2,484.5C778.3,488,779.5,492.5,780.9,498C782.2,503.6,777.7,533.1,777.7,533.1C770.5,535.7,767.2,536.1,750.1,529.2C740.4,525.3,735.4,521.8,735.4,521.8C732.2,483.2,734.7,465.7,734.7,465.7L734.5,443.1Z" fill="#1B75BB"/>
        <path class="st27" d="M755.9,430.4L755.9,430.4C753.6,430.6,751.6,428.9,751.4,426.6L750.4,414.9C750.2,412.6,751.9,410.6,754.2,410.4L754.2,410.4C756.5,410.2,758.5,411.9,758.7,414.2L759.7,425.9C759.9,428.2,758.2,430.2,755.9,430.4Z" fill="#FFC2B0"/>
        <path class="st27" d="M784.5,519.7L784.5,519.7C782.9,520.6,780.9,520,780.1,518.4L777.5,513.8C776.6,512.2,777.2,510.2,778.8,509.4L778.8,509.4C780.4,508.5,782.4,509.1,783.2,510.7L785.8,515.3C786.6,516.9,786,518.9,784.5,519.7Z" fill="#FFC2B0"/>
        <path class="st27" d="M772.2,457.6L775.2,484.8L777.1,511.9L782.5,510.9L782.8,479.5L782.8,453Z" fill="#FFC2B0"/>
        <path class="st13" d="M772.1,433.5C772.1,433.5,785.9,440.9,786.8,464.1L771.2,466.8L768.6,444L772.1,433.5Z" fill="#FCD007"/>
        <g>
            <g>
                <path class="st28" d="M728.9,469.7L719,464.6C718.4,464.3,717.9,463.5,717.9,462.7L717.7,442C717.7,441.2,718.2,440.8,718.8,441L729.2,445.3C729.8,445.6,730.3,446.4,730.3,447.2L730.5,467.8C730.5,468.3,730.2,468.6,729.9,468.9L728.9,469.7Z" fill="#97CBFF"/>
                <path class="st28" d="M722.5,450.3C722.5,450.3,717.8,463.5,717.7,462.7L716.5,442.1L717.9,441.1C718.1,441,718.3,441,718.6,441.1L729,445.4C729.3,445.5,729.6,445.8,729.8,446.1L722.5,450.3Z" fill="#97CBFF"/>
                <g>
                    <g>
                        <path class="st0" d="M728.1,469.8L717.7,465.5C717.1,465.2,716.6,464.4,716.6,463.6L716.4,442.9C716.4,442.1,716.9,441.7,717.5,441.9L727.9,446.2C728.5,446.5,729,447.3,729,448.1L729.2,468.8C729.2,469.6,728.7,470.1,728.1,469.8Z" fill="#FFFFFF"/>
                    </g>
                </g>
                <path class="st29" d="M727.5,469.6L717.4,465.4C716.8,465.2,716.3,464.3,716.3,463.6L716.1,443.6C716.1,442.8,716.6,442.4,717.2,442.7L727.3,446.9C727.9,447.1,728.4,448,728.4,448.7L728.6,468.7C728.6,469.4,728.1,469.8,727.5,469.6Z" fill="#426CDB"/>
                <g>
                    <g>
                        <path class="st0" d="M726.3,451.2L726.3,451.2C726,451,725.7,450.6,725.7,450.1L725.7,447.9C725.7,447.5,726,447.3,726.3,447.4L726.3,447.4C726.6,447.6,726.9,448,726.9,448.5L726.9,450.7C726.9,451.2,726.6,451.4,726.3,451.2Z" fill="#FFFFFF"/>
                    </g>
                </g>
                <path class="st30" d="M726.6,448.5C726.6,448.8,726.3,448.9,726.1,448.8C725.9,448.7,725.7,448.3,725.8,448.1C725.8,447.8,726.1,447.7,726.3,447.8C726.5,447.9,726.6,448.3,726.6,448.5Z" fill="#2C1F9C"/>
            </g>
            <path class="st27" d="M717.1,460.8L717.1,460.8C715.6,460.8,714.4,459.6,714.4,458.2L714.3,453.9C714.3,452.4,715.5,451.2,716.9,451.2L716.9,451.2C718.4,451.2,719.6,452.4,719.6,453.8L719.7,458.1C719.8,459.6,718.6,460.8,717.1,460.8Z" fill="#FFC2B0"/>
        </g>
        <path class="st31" d="M762.9,412.6C762.9,412.6,755.8,411.4,752.3,407.6C748.9,403.8,747.3,400.6,749.1,399.4C751,398.1,764.4,395.8,762.9,412.6Z" fill="#4D4D4D"/>
        <path class="st27" d="M763.8,413.9C763.8,415.6,762.7,417,761.3,417C759.9,417,758.8,415.6,758.8,413.9C758.8,412.2,759.9,410.8,761.3,410.8C762.7,410.9,763.8,412.2,763.8,413.9Z" fill="#FFC2B0"/>
        <path class="st25" d="M750.1,401.5C750.1,401.5,744.9,402.2,743.5,407.2C743.5,407.2,740.8,398.2,754.3,398.6L750.1,401.5Z" fill="#333333"/>
    </g>
    <path class="st32" d="M1071,767.4C1071,767.4,1075,776.4,1102.2,768.8C1125.1,762.4,1126.1,757.8,1126.1,757.8" stroke-linecap="round" stroke-linejoin="round" stroke="#FFFFFF" stroke-miterlimit="10" fill="none"/>
    <g>
        <path class="st0" d="M204.7,288.3L206.5,288.3L206.5,300.6L212.6,300.6L212.6,302.1L204.8,302.1L204.8,288.3Z" fill="#FFFFFF"/>
        <path class="st0" d="M213.8,297C213.8,293.6,216.1,291.6,218.4,291.6C221,291.6,222.5,293.5,222.5,296.4C222.5,296.8,222.5,297.1,222.4,297.4L215.5,297.4C215.6,299.6,217,301,218.9,301C219.9,301,220.7,300.7,221.5,300.2L222.1,301.3C221.2,301.9,220.1,302.4,218.7,302.4C216,302.4,213.8,300.4,213.8,297ZM221,296.2C221,294.1,220.1,293,218.5,293C217.1,293,215.8,294.2,215.5,296.2L221,296.2Z" fill="#FFFFFF"/>
        <path class="st0" d="M224.1,299.5C224.1,297.3,226,296.1,230.4,295.7C230.4,294.4,230,293.1,228.3,293.1C227.1,293.1,226,293.6,225.2,294.2L224.5,293C225.4,292.4,226.9,291.7,228.5,291.7C231,291.7,232.1,293.4,232.1,295.9L232.1,302.2L230.7,302.2L230.6,301L230.5,301C229.5,301.8,228.4,302.5,227.1,302.5C225.4,302.4,224.1,301.3,224.1,299.5ZM230.4,299.6L230.4,296.8C227,297.2,225.8,298.1,225.8,299.4C225.8,300.6,226.6,301,227.6,301C228.6,301,229.4,300.5,230.4,299.6Z" fill="#FFFFFF"/>
        <path class="st0" d="M235.4,291.9L236.8,291.9L236.9,293.8L237,293.8C237.7,292.5,238.8,291.7,239.9,291.7C240.3,291.7,240.7,291.8,241,291.9L240.7,293.4C240.4,293.3,240.1,293.2,239.7,293.2C238.8,293.2,237.8,293.8,237.1,295.6L237.1,302.2L235.4,302.2L235.4,291.9Z" fill="#FFFFFF"/>
        <path class="st0" d="M242.7,291.9L244.1,291.9L244.2,293.4L244.3,293.4C245.3,292.4,246.3,291.7,247.7,291.7C249.9,291.7,250.8,293.1,250.8,295.7L250.8,302.2L249.1,302.2L249.1,295.9C249.1,294,248.5,293.2,247.2,293.2C246.1,293.2,245.4,293.7,244.4,294.8L244.4,302.2L242.7,302.2L242.7,291.9Z" fill="#FFFFFF"/>
        <path class="st0" d="M258.4,291.9L259.8,291.9L259.9,293.4L260,293.4C260.9,292.4,262,291.7,263.2,291.7C264.8,291.7,265.6,292.4,266,293.7C267.1,292.5,268.1,291.7,269.4,291.7C271.5,291.7,272.5,293.1,272.5,295.7L272.5,302.2L270.8,302.2L270.8,295.9C270.8,294,270.2,293.2,268.9,293.2C268.1,293.2,267.3,293.7,266.3,294.8L266.3,302.2L264.6,302.2L264.6,295.9C264.6,294,264,293.2,262.7,293.2C261.9,293.2,261.1,293.7,260.1,294.8L260.1,302.2L258.4,302.2L258.4,291.9Z" fill="#FFFFFF"/>
        <path class="st0" d="M275.2,297C275.2,293.6,277.4,291.6,279.9,291.6C282.4,291.6,284.6,293.6,284.6,297C284.6,300.4,282.4,302.4,279.9,302.4C277.4,302.4,275.2,300.4,275.2,297ZM282.9,297C282.9,294.6,281.7,293,279.9,293C278.1,293,276.9,294.6,276.9,297C276.9,299.3,278.1,300.9,279.9,300.9C281.7,301,282.9,299.4,282.9,297Z" fill="#FFFFFF"/>
        <path class="st0" d="M287.4,291.9L288.8,291.9L288.9,293.8L289,293.8C289.7,292.5,290.8,291.7,291.9,291.7C292.3,291.7,292.7,291.8,293,291.9L292.7,293.4C292.4,293.3,292.1,293.2,291.7,293.2C290.8,293.2,289.8,293.8,289.1,295.6L289.1,302.2L287.4,302.2L287.4,291.9Z" fill="#FFFFFF"/>
        <path class="st0" d="M293.7,297C293.7,293.6,296,291.6,298.3,291.6C300.9,291.6,302.4,293.5,302.4,296.4C302.4,296.8,302.4,297.1,302.3,297.4L295.4,297.4C295.5,299.6,296.9,301,298.8,301C299.8,301,300.6,300.7,301.4,300.2L302,301.3C301.1,301.9,300,302.4,298.6,302.4C295.9,302.4,293.7,300.4,293.7,297ZM300.9,296.2C300.9,294.1,300,293,298.4,293C297,293,295.7,294.2,295.4,296.2L300.9,296.2Z" fill="#FFFFFF"/>
    </g>
    <g>
        <path class="st33" d="M447.3,483.9C456.8,483.9,465.3,486.4,471.4,490.4C474.1,489.6,477.2,489.1,480.4,489.1C492.1,489.1,501.7,495.1,501.7,502.6C501.7,510.1,492.2,516.1,480.4,516.1C478.9,516.1,477.5,516,476.1,515.8C470.3,522.1,459.6,526.3,447.3,526.3C428.9,526.3,413.9,516.8,413.9,505.1C413.9,493.4,428.9,483.9,447.3,483.9Z" fill="#A8C4E5" opacity="0.4"/>
        <path class="st13" d="M476.7,419.8C476.7,431.7,465.9,445.3,452.4,445.3C443,445.3,425.3,438.5,425.3,422.6C425.3,410.7,436.3,401.1,449.8,401.1C463.2,401.1,476.7,408,476.7,419.8Z" fill="#FCD007"/>
        <path class="st34" d="M451.6,517.2L451.6,517.2C449.3,517.2,447.3,515.3,447.3,512.9L447.3,420.3C447.3,418,449.2,416,451.6,416L451.6,416C453.9,416,455.9,417.9,455.9,420.3L455.9,512.9C455.8,515.3,453.9,517.2,451.6,517.2Z" fill="#603813"/>
        <path class="st13" d="M464.6,401.3C464.6,418.5,453,436.8,433.4,436.8C413.8,436.8,396.4,423.9,396.4,406.7C396.4,389.5,409.6,370.2,429.2,370.2C448.8,370.2,464.6,384.2,464.6,401.3Z" fill="#FCD007"/>
        <path class="st13" d="M498.6,396.4C498.6,413.6,482.7,422.9,463.2,422.9C443.6,422.9,427.8,409,427.8,391.8C427.8,374.6,443.7,360.7,463.2,360.7C482.7,360.7,498.6,379.2,498.6,396.4Z" fill="#FCD007"/>
        <g>
            <path class="st34" d="M450.5,454.8C463.7,452.3,476.1,447,486.6,438.7C490.7,435.4,496.7,441.3,492.5,444.6C480.8,453.8,467.4,460.1,452.7,462.8C447.5,463.7,445.2,455.7,450.5,454.8L450.5,454.8Z" fill="#603813"/>
        </g>
        <path class="st13" d="M512.7,442.9C512.7,454.9,501.6,464.7,487.8,464.7C474.1,464.7,462.9,454.9,462.9,442.9C462.9,430.9,478.8,421.5,492.5,421.5C506.2,421.5,512.7,430.8,512.7,442.9Z" fill="#FCD007"/>
        <path class="st13" d="M452.8,358.6C462,366.4,462.1,381.2,453.2,391.7C444.3,402.1,429.6,404.3,420.5,396.4C415.7,392.3,414.2,370.8,423.5,360C432.3,349.5,443.6,350.7,452.8,358.6Z" fill="#FCD007"/>
        <path class="st13" d="M506.4,455.8C506.4,464,498.9,473.4,489.6,473.4C480.2,473.4,470.8,465.9,470.8,457.7C470.8,449.5,478.4,442.8,487.8,442.8C497,442.9,506.4,447.6,506.4,455.8Z" fill="#FCD007"/>
        <path class="st35" d="M493.7,443.7C492.6,447.6,487,449.4,481.3,447.8C475.5,446.2,471.7,441.7,472.8,437.9C473.9,434,479.5,432.2,485.2,433.8C491,435.4,494.8,439.8,493.7,443.7Z" fill="#FFDA91"/>
        <path class="st35" d="M429.8,370.7C427,367.8,428.2,362.1,432.4,357.9C436.7,353.7,444.4,354.3,447.2,357.2C450,360.1,450.1,363.1,445.8,367.3C441.6,371.6,432.6,373.6,429.8,370.7Z" fill="#FFDA91"/>
        <ellipse class="st35" rx="21.7" ry="14.5" fill="#FFDA91" transform="translate(-54.6759,728.986) rotate(-78.2878) scale(1.00002,1.00002) translate(420.5,398.1)"/>
    </g>
    <g>
        <g>
            <g>
                <path class="st2" d="M963.4,909.2L1049,859.8L1049,766.9L962.9,816.6Z" fill="#5C85C9"/>
                <path class="st36" d="M963.2,717.4L963.2,717.4L877.1,667.7L791.6,717.1L877.4,766.6L877.4,766.6L963.4,816.3L1049,766.9Z" fill="#FF82C7"/>
            </g>
            <g>
                <path class="st2" d="M963.4,865.8L1049,816.4L1049,723.6L962.9,773.3Z" fill="#5C85C9"/>
                <path class="st37" d="M963.2,674L963.2,674L880.6,629.1L791.6,673.7L877.4,723.3L877.4,723.3L962.9,773.3L1049,723.6Z" fill="#E1E8F6"/>
                <path class="st3" d="M963.2,816.8L962.9,773.3L791.6,673.7L791.6,717.7L791.6,767.2L791.6,810.6L963.4,909.8L963.4,816.9Z" fill="#A6C2F0"/>
                <path class="st17" d="M962.9,773.3L791.6,673.7L791.6,717.7L791.6,767.2L791.6,810.6Z" fill="#BAD4FF"/>
            </g>
        </g>
        <path class="st6" d="M1026.7,755.2L1036,749.8L1036,749.8L1045.1,744.6L1045.1,772.1L1035.8,777.5L1035.8,777.5L1026.7,782.8Z" fill="#4772BA"/>
        <path class="st6" d="M998.8,771.8L1008.1,766.4L1008.1,766.4L1017.2,761.2L1017.2,788.8L1007.9,794.2L1007.9,794.2L998.8,799.4Z" fill="#4772BA"/>
        <path class="st6" d="M970.8,788.5L980.2,783.1L980.2,783.1L989.3,777.8L989.3,805.4L979.9,810.8L979.9,810.8L970.8,816Z" fill="#4772BA"/>
        <path class="st6" d="M1026.7,791.8L1036,786.5L1036,786.5L1045.1,781.2L1045.1,808.8L1035.8,814.2L1035.8,814.2L1026.7,819.4Z" fill="#4772BA"/>
        <path class="st6" d="M998.8,808.5L1008.1,803.1L1008.1,803.1L1017.2,797.8L1017.2,825.4L1007.9,830.8L1007.9,830.8L998.8,836.1Z" fill="#4772BA"/>
        <path class="st6" d="M970.8,825.1L980.2,819.7L980.2,819.7L989.3,814.5L989.3,842.1L979.9,847.4L979.9,847.4L970.8,852.7Z" fill="#4772BA"/>
        <path class="st6" d="M1026.7,828.5L1036,823.1L1036,823.1L1045.1,817.9L1045.1,845.4L1035.8,850.8L1035.8,850.8L1026.7,856.1Z" fill="#4772BA"/>
        <path class="st6" d="M998.8,845.1L1008.1,839.7L1008.1,839.7L1017.2,834.5L1017.2,862.1L1007.9,867.5L1007.9,867.5L998.8,872.7Z" fill="#4772BA"/>
        <path class="st6" d="M970.8,861.8L980.2,856.4L980.2,856.4L989.3,851.1L989.3,878.7L979.9,884.1L979.9,884.1L970.8,889.3Z" fill="#4772BA"/>
        <g>
            <path class="st5" d="M812.3,731.3L803,725.9L803,698.3L812.3,703.7Z" fill="#6794E0"/>
            <path class="st5" d="M840.3,718.7L831,713.3L831,713.3L821.9,708.1L821.9,735.7L831.2,741L831.2,741L840.3,746.3Z" fill="#6794E0"/>
            <path class="st5" d="M868.3,735.4L858.9,730L858.9,730L849.8,724.7L849.8,752.3L859.2,757.7L859.2,757.7L868.3,762.9Z" fill="#6794E0"/>
            <path class="st5" d="M896.2,752L886.9,746.6L886.9,746.6L877.8,741.4L877.8,768.9L887.1,774.3L887.1,774.3L896.2,779.6Z" fill="#6794E0"/>
            <path class="st5" d="M924.1,768.6L914.8,763.2L914.8,763.2L905.7,758L905.7,785.6L915,791L915,791L924.1,796.2Z" fill="#6794E0"/>
            <path class="st5" d="M952,785.3L942.7,779.9L942.7,779.9L933.6,774.6L933.6,802.2L942.9,807.6L942.9,807.6L952,812.8Z" fill="#6794E0"/>
            <path class="st5" d="M840.3,755.4L831,750L831,750L821.9,744.7L821.9,772.3L831.2,777.7L831.2,777.7L840.3,782.9Z" fill="#6794E0"/>
            <path class="st5" d="M868.3,772L858.9,766.6L858.9,766.6L849.8,761.4L849.8,788.9L859.2,794.3L859.2,794.3L868.3,799.6Z" fill="#6794E0"/>
            <path class="st5" d="M896.2,788.6L886.9,783.3L886.9,783.3L877.8,778L877.8,805.6L887.1,811L887.1,811L896.2,816.2Z" fill="#6794E0"/>
            <path class="st5" d="M924.1,805.3L914.8,799.9L914.8,799.9L905.7,794.6L905.7,822.2L915,827.6L915,827.6L924.1,832.9Z" fill="#6794E0"/>
            <path class="st5" d="M952,821.9L942.7,816.5L942.7,816.5L933.6,811.3L933.6,838.9L942.9,844.2L942.9,844.2L952,849.5Z" fill="#6794E0"/>
            <path class="st5" d="M840.3,792L831,786.6L831,786.6L821.9,781.4L821.9,809L831.2,814.3L831.2,814.3L840.3,819.6Z" fill="#6794E0"/>
            <path class="st5" d="M868.3,808.6L858.9,803.3L858.9,803.3L849.8,798L849.8,825.6L859.2,831L859.2,831L868.3,836.2Z" fill="#6794E0"/>
            <path class="st5" d="M896.2,825.3L886.9,819.9L886.9,819.9L877.8,814.6L877.8,842.2L887.1,847.6L887.1,847.6L896.2,852.9Z" fill="#6794E0"/>
            <path class="st5" d="M924.1,841.9L914.8,836.5L914.8,836.5L905.7,831.3L905.7,858.9L915,864.2L915,864.2L924.1,869.5Z" fill="#6794E0"/>
            <path class="st5" d="M952,858.6L942.7,853.2L942.7,853.2L933.6,847.9L933.6,875.5L942.9,880.9L942.9,880.9L952,886.1Z" fill="#6794E0"/>
            <path class="st5" d="M812.3,768.4L803,763L803,735.4L812.3,740.8Z" fill="#6794E0"/>
            <path class="st5" d="M812.3,805.5L803,800.1L803,772.6L812.3,777.9Z" fill="#6794E0"/>
        </g>
    </g>
    <g>
        <rect class="st12" width="27.4" height="17.4" fill="#1B75BB" transform="translate(251.316,-114.478) rotate(19.0329) scale(0.999967,0.999967) translate(453.4,683.7)"/>
        <g>
            <path class="st12" d="M451.3,633.9C457.7,641.3,461.3,644.9,471.1,645.8C484.7,647,494,628.7,502,618.6C505.6,614.1,499.3,607.5,495.6,612.1C489.1,620.3,480.2,628.3,468.9,627.1C461.4,626.3,459.9,626.5,455,620.9C451.2,616.5,445.6,626.9,449.4,631.3L451.3,633.9Z" fill="#1B75BB"/>
        </g>
        <path class="st27" d="M502.3,616.1L505.5,612.8C507.2,611.1,507.1,608.3,505.4,606.7L505.4,606.7C503.7,605,500.9,605.1,499.3,606.8L496.1,610.1C494.4,611.8,494.5,614.6,496.2,616.2L496.2,616.2C497.8,617.8,500.6,617.8,502.3,616.1Z" fill="#FFC2B0"/>
        <path class="st12" d="M479.3,630.9L499.5,650.5C503.1,654,509.2,652.3,510.4,647.4L518.5,615.6L511.5,616.3L503.5,637C503.5,637,490.4,621.1,486.2,620.5C482,619.8,479.3,630.9,479.3,630.9Z" fill="#1B75BB"/>
        <g>
            <path class="st28" d="M510.2,625L498.8,620.3C498.1,620,497.7,619.1,497.9,618.3L502.4,596.9C502.6,596.1,503.3,595.6,503.9,595.9L515.2,600.4C515.9,600.7,516.3,601.6,516.1,602.4L511.6,623.7C511.5,624.2,511.3,624.4,510.8,624.6L510.2,625Z" fill="#97CBFF"/>
            <path class="st28" d="M506.4,605.4C506.4,605.4,497.7,619.1,497.9,618.3L502.3,596.2L503.2,595.9C503.5,595.8,503.7,595.8,504,595.9L515.3,600.4C515.6,600.5,515.9,600.8,516.1,601.2L506.4,605.4Z" fill="#97CBFF"/>
            <path class="st12" d="M509.2,625.1L497.9,620.6C497.2,620.3,496.8,619.4,497,618.6L501.5,597.2C501.7,596.4,502.3,595.9,503,596.2L514.3,600.7C515,601,515.3,601.9,515.2,602.7L510.7,624.1C510.5,624.9,509.8,625.4,509.2,625.1Z" fill="#1B75BB"/>
            <path class="st38" d="M509.8,621.6L498.7,617.2L502.6,598.3L513.6,602.7L509.5,621.2C509.6,621.3,510,621.6,509.8,621.6Z" fill="#DBEDFF"/>
        </g>
        <ellipse class="st33" rx="40.6" ry="20.2" fill="#A8C4E5" opacity="0.4" transform="translate(-13.97,8.4797) rotate(-1.01599) scale(0.999957,0.999957) translate(471.2,792.1)"/>
        <path class="st12" d="M448.8,778.9L455.8,777.7C460.4,775.4,462.5,773.7,464.7,774.8L465.3,775.1C467.4,776.2,467.3,778.4,464.9,779.8L455,788.4C452.7,789.9,449.4,789.6,447.4,788C447.4,788,446.2,787,446.8,782.6C447.1,780.2,446.9,780.1,448.8,778.9Z" fill="#1B75BB"/>
        <path class="st12" d="M480.2,794.7L487.1,796C492.2,795.4,494.8,794.6,496.4,796.4L496.9,796.9C498.5,798.7,497.6,800.6,494.9,801.2L482.6,805.8C479.9,806.4,476.9,805,475.6,802.8C475.6,802.8,474.8,801.5,476.9,797.5C478.2,795.4,478.1,795.2,480.2,794.7Z" fill="#1B75BB"/>
        <path class="st39" d="M485.1,796.5C485.1,800,476.6,800,476.6,796.5L476.6,785.1L485.1,785.1L485.1,796.5Z" fill="#C6D2F2"/>
        <path class="st12" d="M486.2,789.3C485.1,793.7,476.3,793.4,474.5,790.5C475.1,752.1,469.7,671.5,469.7,671.5L491.5,671.8C491.6,711.1,490.1,750.3,486.2,789.3Z" fill="#1B75BB"/>
        <path class="st39" d="M455.4,780C455.3,783.2,446.8,783.6,446.9,780.4L447.1,770.1L455.6,769.7L455.4,780Z" fill="#C6D2F2"/>
        <path class="st12" d="M456.9,775.4C453.6,779.1,446.9,777.8,445.5,775.4L445.6,672.4L467.2,674.6L456.9,775.4Z" fill="#1B75BB"/>
        <ellipse class="st27" rx="8.3" ry="14.6" fill="#FFC2B0" transform="translate(-72.3661,65.0541) rotate(-7.37163) scale(0.999965,0.999965) translate(468.9,594.4)"/>
        <path class="st27" d="M483.7,600.3C481.8,607,474.6,609.5,470.3,605.1C466.1,600.7,464.2,591.7,466.1,585C468,578.3,473,576.4,477.3,580.8C481.6,585,485.7,593.5,483.7,600.3Z" fill="#FFC2B0"/>
        <path class="st27" d="M468.3,620.7L467.5,620.5C464.8,619.9,464.4,617.1,465,614.5L467.1,599.6C467.7,596.9,470.4,595.2,473,595.8L473.8,596C476.5,596.6,478.2,599.3,477.6,601.9L476.5,616.8C475.9,619.5,471,621.3,468.3,620.7Z" fill="#FFC2B0"/>
        <path class="st40" d="M460.9,598.9C460.9,598.9,461.3,602.6,468.3,603.3C475,604,474.2,593.8,480.7,592.7C487.8,591.5,488.3,583.9,485.5,580.5C482.7,577.1,474.9,575.4,469.2,577.9C463.6,580.4,457.4,582.2,460.9,598.9Z" fill="#42210B"/>
        <path class="st27" d="M480,597.5C479.5,599.1,477.8,600.1,476.2,599.6C474.6,599.1,473.6,597.4,474.1,595.8C474.6,594.2,476.3,593.2,477.9,593.7C479.5,594.2,480.5,595.9,480,597.5Z" fill="#FFC2B0"/>
        <path class="st13" d="M442.7,672.1C444,658.5,443.7,648.5,444,633.8C442.7,596.7,472.4,611,474.1,611.9C492.5,621.4,493.7,623,493.2,633.9C493.3,652,494,673.7,493.7,682.6C489.8,695.2,446.9,681,442.7,672.1Z" fill="#FCD007"/>
        <path class="st27" d="M515.2,622.3L515.2,622.3C512.9,622.1,511.2,620.1,511.4,617.9L512.2,608.2C512.4,605.9,514.4,604.2,516.6,604.4L516.6,604.4C518.9,604.6,520.6,606.6,520.4,608.8L519.6,618.5C519.5,620.8,517.5,622.5,515.2,622.3Z" fill="#FFC2B0"/>
    </g>
    <g>
        <path class="st26" d="M240,909.4C240,898.4,254.1,889.4,271.5,889.4C272.7,889.4,273.8,889.4,274.9,889.5C282.6,884.4,293.5,881.1,305.6,881.1C329.1,881.1,348.1,893.2,348.1,908.1C348.1,922.8,329.6,934.7,306.6,935.1C302.7,943.3,290.7,949.3,276.5,949.3C259.1,949.3,245,940.4,245,929.3C245,926.7,245.8,924.3,247.2,922.1C242.7,918.7,240,914.3,240,909.4Z" fill="#E8EEFA"/>
        <g>
            <path class="st41" d="M283.2,883.3C263.3,882.5,249,858.1,249.8,839.9C250.1,833.1,260.7,833.1,260.4,839.9C260.1,846.6,255,852.3,258.7,857.9C262.6,863.8,267.3,877.2,282.8,876.3C289.6,876,290,883.5,283.2,883.3L283.2,883.3Z" fill="#344FC4"/>
        </g>
        <path class="st41" d="M287.9,937.2L287.9,937.2C290.1,937.2,292,934.9,292,932.2L292,863C292,860.2,290.2,858,287.9,858L287.9,858C285.7,858,283.8,860.3,283.8,863L283.8,932.2C283.8,934.9,285.6,937.2,287.9,937.2Z" fill="#344FC4"/>
        <ellipse class="st42" rx="37.6" ry="42.9" fill="#B0CDFF" transform="translate(-519.758,997.638) rotate(-84.2033) scale(1.00001,1.00001) translate(292.2,786.4)"/>
        <ellipse class="st42" rx="37.6" ry="42.9" fill="#B0CDFF" transform="translate(-571.456,1022.03) rotate(-84.2033) scale(1.00001,1.00001) translate(279.8,827.2)"/>
        <path class="st42" d="M284.6,813.6C284.6,829,298.8,841.4,316.4,841.4C333.9,841.4,348.2,828.9,348.2,813.6C348.2,798.3,328,786.3,310.4,786.3C292.8,786.2,284.6,798.2,284.6,813.6Z" fill="#B0CDFF"/>
        <path class="st42" d="M260.5,771.6C250,771.3,237.8,780.6,237.5,792.6C237.2,804.6,246.5,816.8,257,817.1C267.5,817.4,276.2,807.9,276.5,795.9C276.8,783.9,271,771.9,260.5,771.6Z" fill="#B0CDFF"/>
        <ellipse class="st43" rx="27.8" ry="18.5" fill="#CFE0FF" transform="translate(-180.419,92.2949) rotate(-14.1043) scale(1.00005,1.00005) translate(282.8,775.4)"/>
        <path class="st43" d="M253.2,831.5C257.3,835.8,266,834.3,272.4,828.1C278.9,821.9,280.8,813.4,276.6,809C272.5,804.7,263.8,806.2,257.4,812.4C251,818.6,249.1,827.2,253.2,831.5Z" fill="#CFE0FF"/>
    </g>
    <g>
        <ellipse class="st33" rx="47.7" ry="27.5" fill="#A8C4E5" opacity="0.4" transform="translate(0,0) translate(746.5,898.1)"/>
        <path class="st12" d="M727.3,902.9C727,902.7,722.7,900.9,719.7,900.9C718.2,900.9,707.6,907.4,707,908.3C705.6,910.3,707.6,912.6,707.6,912.6L707.6,912.6C708.1,913.5,709.2,914.2,711.6,914L729.3,909.3L729.3,903.4C729.3,903.4,727.6,903.1,727.3,902.9Z" fill="#1B75BB"/>
        <path class="st12" d="M734.1,900.6C734.4,900.6,739.1,901,741.7,902.5C743,903.2,749.2,914.1,749.3,915.2C749.5,917.6,746.7,918.6,746.7,918.6L746.7,918.6C745.8,919.2,744.5,919.3,742.5,917.9L729.2,905.3L732.1,900.1C732.1,900.1,733.8,900.6,734.1,900.6Z" fill="#1B75BB"/>
        <path class="st44" d="M740.5,865.2C740.5,865.2,716.8,851.5,708.4,852.5C700,853.5,698.3,858.8,697.5,861.2C696.8,863.5,703.7,872.1,721,877.1L763.6,895.5C763.6,895.5,786.8,906.6,787.7,899.6C788.6,892.3,775.7,877.4,769.9,874.2C764.1,870.9,740.5,865.2,740.5,865.2Z" fill="#FFCD06"/>
        <path class="st13" d="M698.7,859.4C698.7,859.4,706,849.2,721,877C732.4,898.1,733.4,905.5,733.4,905.5L726.1,904.1C726.1,904,690.2,865.8,698.7,859.4Z" fill="#FCD007"/>
        <path class="st13" d="M786.8,895.8C786.8,895.8,783.8,890.6,769.4,894.1C744.3,900.1,724.2,901.8,724.2,901.8C724.2,901.8,723,910.1,725.3,912.2C733.9,913.4,780.5,912.8,786.7,902.7C788.9,899.3,786.8,895.8,786.8,895.8Z" fill="#FCD007"/>
        <path class="st25" d="M750.7,799.7C750.7,799.7,751.3,802.7,754.5,800.9C755.5,800.3,766.5,789.7,755.8,777.5C750.9,772,741.6,782.2,741.6,782.2L750.7,799.7Z" fill="#333333"/>
        <path class="st27" d="M720.9,817.9L715.8,834.1C715,837.6,711,839.3,707.9,837.5L701.2,833.5L701.1,842.1L710.8,848C714.4,850.2,719.1,848.8,721,845C724.2,838.3,728.5,829.2,728.5,829C728.5,828.6,720.9,817.9,720.9,817.9Z" fill="#FFC2B0"/>
        <path class="st12" d="M723.8,808.3L714.4,828.4C716.5,835.1,720.3,838.4,725.1,839.9L727.7,813.3L723.8,808.3Z" fill="#1B75BB"/>
        <g>
            <path class="st28" d="M715.3,847.9L704.5,845C703.8,844.9,703.2,844.2,703,843.4L698.4,823.3C698.2,822.5,698.6,822,699.3,822.1L710.4,824.1C711.1,824.2,711.7,824.9,711.9,825.7L716.5,845.8C716.6,846.3,716.4,846.7,716.1,847L715.3,847.9Z" fill="#97CBFF"/>
            <path class="st28" d="M705,830.2C705,830.2,703.2,844.1,703,843.4L697.5,823.5L698.6,822.2C698.8,822.1,699,822,699.3,822L710.4,824C710.7,824.1,711.1,824.3,711.3,824.5L705,830.2Z" fill="#97CBFF"/>
            <g>
                <g>
                    <path class="st0" d="M714.6,848.2L703.5,846.2C702.8,846.1,702.2,845.4,702,844.6L697.4,824.5C697.2,823.7,697.6,823.2,698.3,823.3L709.3,825.3C710,825.4,710.6,826.2,710.8,826.9L715.4,847C715.6,847.8,715.3,848.3,714.6,848.2Z" fill="#FFFFFF"/>
                </g>
            </g>
            <path class="st29" d="M714,848.1L703.3,846.2C702.7,846.1,702,845.4,701.8,844.6L697.3,825.1C697.1,824.4,697.5,823.8,698.1,824L708.8,825.9C709.4,826,710.1,826.7,710.2,827.5L714.7,847C715,847.7,714.6,848.2,714,848.1Z" fill="#426CDB"/>
            <g>
                <g>
                    <path class="st0" d="M708.9,830.4L708.9,830.4C708.5,830.3,708.1,829.9,708,829.5L707.5,827.3C707.4,826.9,707.6,826.6,708,826.7L708,826.7C708.4,826.8,708.8,827.2,708.9,827.6L709.4,829.8C709.5,830.2,709.3,830.4,708.9,830.4Z" fill="#FFFFFF"/>
                </g>
            </g>
            <path class="st30" d="M708.6,827.7C708.6,828,708.4,828.1,708.2,828C708,827.9,707.7,827.6,707.7,827.3C707.7,827,707.9,826.9,708.1,827C708.4,827.1,708.6,827.4,708.6,827.7Z" fill="#2C1F9C"/>
        </g>
        <path class="st12" d="M722.8,868.2C723.4,853.4,722.6,842.7,722,826.9C718.5,787,751.3,800.7,753.2,801.6C773.6,810.8,775,812.4,775,824.2C776.1,843.7,778.2,867.1,778.3,876.7C774.9,890.4,727.9,877.6,722.8,868.2Z" fill="#1B75BB"/>
        <path class="st27" d="M749.6,811.5L749.6,811.5C752,811.3,753.8,809.1,753.6,806.7L752.8,797.6C752.6,795.2,750.4,793.4,748,793.6L748,793.6C745.6,793.8,743.8,796,744,798.4L744.8,807.5C745,810,747.2,811.8,749.6,811.5Z" fill="#FFC2B0"/>
        <path class="st27" d="M751.2,795C751.8,801.2,748.2,804.3,743.3,802C738.4,799.7,734,792.9,733.4,786.7C732.8,780.5,736.4,777.4,741.3,779.7C746.2,782,750.6,788.9,751.2,795Z" fill="#FFC2B0"/>
        <path class="st27" d="M756.3,791C756.9,797.2,751.7,801.5,746.8,799.2C741.9,796.9,737.5,790.1,736.9,783.9C736.3,777.7,739.9,774.6,744.8,776.9C749.7,779.2,755.8,784.9,756.3,791Z" fill="#FFC2B0"/>
        <path class="st27" d="M757.5,793.2C757.6,794.7,756.5,796,755,796.2C753.5,796.3,752.2,795.2,752,793.7C751.9,792.2,753,790.9,754.5,790.7C756.1,790.6,757.4,791.7,757.5,793.2Z" fill="#FFC2B0"/>
        <path class="st25" d="M740.7,782.3C740.7,782.3,744.4,787,748.3,793.5C749.7,795.9,753.2,795.7,754.4,793.2C757.1,787.4,759.7,778.5,752.2,774.3C742,768.6,735.8,779.9,735.8,779.9L740.7,782.3Z" fill="#333333"/>
        <path class="st25" d="M733.5,789.4C735,786.9,738.5,787.4,740.6,782.3L735.7,779.8C735.7,779.8,731.1,782.9,731,788.7C731.1,790.1,732.9,790.5,733.5,789.4Z" fill="#333333"/>
        <path class="st27" d="M702,841.7L702,841.7C700.6,842,699.1,841.1,698.8,839.7L697.8,835.5C697.5,834.1,698.4,832.6,699.8,832.3L699.8,832.3C701.2,832,702.7,832.9,703,834.3L704,838.5C704.3,839.9,703.4,841.4,702,841.7Z" fill="#FFC2B0"/>
        <g>
            <path class="st27" d="M773.4,826.5C773.4,826.5,785.7,825.9,787.2,857.2C787.6,865.8,779.4,872.2,771.2,869.7L749.5,862.7L749.9,857.2C749.9,857.2,777.3,866.1,775.7,857C774,846.6,764.5,830.7,773.4,826.5Z" fill="#FFC2B0"/>
            <path class="st27" d="M754.5,859.6L754.7,860.6C755,862.5,753.8,864.4,751.8,864.7L747.9,865.4C746,865.7,744.1,864.5,743.8,862.5L743.6,861.5C743.3,859.6,744.5,857.7,746.5,857.4L750.4,856.7C752.3,856.4,754.2,857.7,754.5,859.6Z" fill="#FFC2B0"/>
        </g>
        <path class="st12" d="M770.8,811.1C770.8,811.1,780.3,818,784.8,838.9L769.9,844.1L763.6,822.1L770.8,811.1Z" fill="#1B75BB"/>
    </g>
    <g>
        <g>
            <path class="st45" d="M1059.2,614.8C1065.1,622.6,1068.4,626.4,1078.2,628C1091.7,630.1,1102.1,612.4,1110.9,602.9C1114.8,598.6,1108.9,591.7,1104.9,596C1097.8,603.7,1088.4,611.1,1077.3,609.2C1069.9,607.9,1068.3,608,1063.9,602.1C1060.4,597.4,1054.1,607.4,1057.6,612.1L1059.2,614.8Z" fill="#FFDD00"/>
        </g>
        <path class="st46" d="M1111.3,600.4L1114.7,597.3C1116.5,595.7,1116.6,593,1115,591.2L1115,591.2C1113.4,589.4,1110.7,589.3,1108.9,590.9L1105.5,594C1103.7,595.6,1103.6,598.3,1105.2,600.1L1105.2,600.1C1106.7,601.8,1109.5,602,1111.3,600.4Z" fill="#CF8484"/>
        <ellipse class="st33" rx="33" ry="16.4" fill="#A8C4E5" opacity="0.4" transform="translate(-7.3895,11.7606) rotate(-0.62811) scale(0.99996,0.99996) translate(1069.1,680)"/>
        <path class="st46" d="M1096.8,665.3C1096.8,665.3,1095.5,678.2,1062.4,684.9L1060.7,681.7L1090.5,656.9L1096.8,665.3Z" fill="#CF8484"/>
        <path class="st12" d="M1062.9,685.4L1057.4,687.4C1054,690,1052.5,691.6,1050.6,691L1050.1,690.8C1048.2,690.2,1048,688.4,1049.7,686.9L1056.6,678.4C1058.3,676.8,1061,676.6,1062.9,677.6C1062.9,677.6,1064,678.2,1064.1,681.9C1064.1,684.1,1064.3,684.2,1062.9,685.4Z" fill="#1B75BB"/>
        <path class="st46" d="M1104.8,669.2C1104.8,669.2,1114.2,678.7,1068.7,692.5L1066.3,686.6L1096.1,667.2L1104.8,669.2Z" fill="#CF8484"/>
        <path class="st12" d="M1053.3,645.4L1092.7,651.2C1092.7,651.2,1118.3,668.6,1095.8,675.5L1064.6,683C1057.9,684.7,1052,684.1,1048.1,677.9C1044.7,672.4,1045.6,660.7,1048.7,655.7L1053.3,645.4Z" fill="#1B75BB"/>
        <path class="st12" d="M1068.9,692.5L1063.4,694.5C1060,697.1,1058.5,698.7,1056.6,698.1L1056.1,697.9C1054.2,697.3,1054,695.5,1055.7,694L1062.6,685.5C1064.3,683.9,1067,683.7,1068.9,684.7C1068.9,684.7,1070,685.3,1070.1,689C1070.1,691.2,1070.3,691.3,1068.9,692.5Z" fill="#1B75BB"/>
        <g>
            <path class="st28" d="M1124.2,606.9L1112.8,602.3C1112.1,602,1111.7,601.2,1111.9,600.3L1116.2,578.8C1116.4,578,1117,577.5,1117.7,577.8L1129,582.2C1129.7,582.5,1130.1,583.3,1129.9,584.2L1125.6,605.6C1125.5,606.1,1125.3,606.3,1124.8,606.5L1124.2,606.9Z" fill="#97CBFF"/>
            <path class="st28" d="M1120.2,587.4C1120.2,587.4,1111.7,601.2,1111.8,600.3L1116,578.2L1116.9,577.9C1117.1,577.8,1117.4,577.8,1117.7,577.9L1129,582.3C1129.3,582.4,1129.6,582.7,1129.8,583L1120.2,587.4Z" fill="#97CBFF"/>
            <path class="st29" d="M1123.2,607.1L1111.9,602.7C1111.2,602.4,1110.8,601.6,1111,600.7L1115.3,579.2C1115.5,578.4,1116.1,577.9,1116.8,578.2L1128.1,582.6C1128.8,582.9,1129.2,583.7,1129,584.6L1124.7,606.1C1124.5,606.9,1123.9,607.3,1123.2,607.1Z" fill="#426CDB"/>
            <path class="st38" d="M1123.8,603.6L1112.7,599.3L1116.5,580.4L1127.6,584.7L1123.6,603.2C1123.5,603.3,1124,603.6,1123.8,603.6Z" fill="#DBEDFF"/>
        </g>
        <path class="st46" d="M1075.8,590.8C1074.2,597.6,1069.1,597.6,1064.6,593.5C1060.1,589.3,1058.1,582.6,1059.6,575.8C1061.2,569,1066,566.8,1070.5,571C1075,575.1,1077.3,584,1075.8,590.8Z" fill="#CF8484"/>
        <path class="st46" d="M1082.8,588.3C1081.2,595.1,1074.2,598,1069.7,593.8C1065.2,589.6,1062.9,580.7,1064.4,573.9C1066,567.1,1070.8,564.9,1075.3,569.1C1079.8,573.3,1084.3,581.5,1082.8,588.3Z" fill="#CF8484"/>
        <path class="st46" d="M1066.5,610.1L1065.9,610C1063.9,609.5,1063.8,606.8,1064.4,604.1L1067.1,589.3C1067.8,586.6,1070,584.9,1072,585.4L1072.6,585.5C1074.6,586,1075.7,588.6,1075.1,591.2L1073.1,606C1072.4,608.6,1068.5,610.6,1066.5,610.1Z" fill="#CF8484"/>
        <path class="st40" d="M1059.9,588.2C1059.9,588.2,1060.5,591.9,1067.6,592.2C1074.3,592.5,1073,582.4,1079.4,581C1086.4,579.5,1086.5,571.7,1083.5,568.5C1080.5,565.3,1072.6,564,1067.1,566.8C1061.6,569.6,1055.4,571.8,1059.9,588.2Z" fill="#42210B"/>
        <path class="st13" d="M1050.2,617L1048.4,650.9C1048.4,650.9,1047.9,660.3,1067.6,661.6C1082.7,662.6,1093.8,654.3,1094.6,652.4L1089.9,622.9L1104.1,630.5C1104.1,630.5,1099.8,612.2,1081,602.9C1077.6,601.2,1072.5,599.2,1068.4,597.7C1062.3,595.4,1059.6,596.5,1054.3,600.3C1051.6,602.3,1050.2,617,1050.2,617Z" fill="#FCD007"/>
        <path class="st46" d="M1128.5,604.3L1128.5,604.3C1126.6,604.4,1125,603,1124.9,601.1L1124.7,597.7C1124.6,595.8,1126,594.2,1127.9,594.1L1127.9,594.1C1129.8,594,1131.4,595.4,1131.5,597.3L1131.7,600.7C1131.8,602.6,1130.3,604.2,1128.5,604.3Z" fill="#CF8484"/>
        <path class="st0" d="M1074.1,599.9C1074.1,599.9,1068.2,595.8,1064,596.7C1064,596.7,1064.6,602.4,1074.1,599.9Z" fill="#FFFFFF"/>
        <path class="st40" d="M1074.1,565.3C1074.1,565.3,1066.2,562.3,1057.4,567.7C1048.6,573.2,1044.9,576.4,1046.8,585.2C1048.7,594,1054.3,598.8,1060.2,599.2C1066.1,599.6,1074.8,590.5,1077.5,581.8C1080.2,573.1,1081.9,570.1,1081.9,570.1L1074.1,565.3Z" fill="#42210B"/>
        <path class="st46" d="M1078.9,585.8C1078.5,587.5,1076.9,588.5,1075.2,588.1C1073.5,587.7,1072.5,586.1,1072.9,584.4C1073.3,582.7,1074.9,581.7,1076.6,582.1C1078.2,582.5,1079.3,584.1,1078.9,585.8Z" fill="#CF8484"/>
        <path class="st45" d="M1080,617.1L1097.8,634.4C1103.9,640.3,1113.9,638.8,1117.9,631.4L1131.5,604L1124.6,602.9L1110.8,620.8C1108.9,623.2,1105.4,623.4,1103.3,621.2C1098.1,615.9,1089.4,607.3,1086.6,606.9C1082.4,606.5,1080,617.1,1080,617.1Z" fill="#FFDD00"/>
    </g>
    <g id="chat1" transform="translate(1331.68,408.85) scale(0,0) translate(-161.557,-187.385)" style="animation: 3s linear infinite both chat1_t;">
        <path class="st47" d="M1320,395.6L1190.3,320.7C1186.6,318.5,1183.5,312.7,1183.5,307.7L1183.5,227.4C1183.5,222.4,1186.6,220.1,1190.3,222.3L1320,297.2C1323.7,299.4,1326.8,305.2,1326.8,310.2L1326.8,390.5C1326.8,395.5,1323.7,397.8,1320,395.6Z" fill="#D9E9FF" transform="translate(-1170.13,-221.465)"/>
        <g transform="translate(-1170.13,-221.465)">
            <g>
                <ellipse class="st0" rx="20.6" ry="36.7" fill="#FFFFFF" transform="translate(21.4887,652.01) rotate(-30.2779) scale(1.00001,1.00001) translate(1215.8,286.3)"/>
            </g>
        </g>
        <path class="st41" d="M1224.8,307.4C1227,308.8,1229.8,306.9,1229.1,304.3C1228.5,301.8,1227.7,299.5,1227,298.5L1227,298.5C1226.4,297.6,1225.6,296.8,1225,296.2C1224.3,295.5,1223.4,294.6,1222.6,293.7C1222.3,293.4,1222,293.1,1221.7,292.8L1221.7,292.8L1220,290.9C1219.7,290.6,1219.5,290.2,1219.2,289.9C1219.2,289.8,1219.1,289.7,1219,289.7C1219,289.6,1219,289.4,1219,289.3C1219,288.5,1218.9,287.7,1218.9,286.9C1219.6,286.5,1220,285.7,1220.2,284.6C1221.4,285.4,1221.6,283.8,1221.7,282.8C1221.8,282,1221.9,280.1,1221,279.3C1221,279.2,1221,279.1,1221.1,279C1221.2,278.4,1221.3,277.7,1221.3,277C1221.3,276.3,1221.2,275.4,1220.8,274.6C1220.7,274.4,1220.6,274.2,1220.5,274C1220.5,273.8,1220.4,273.4,1220.4,273.1C1219.7,270.8,1218.3,268.7,1216.9,267.4C1215.5,266.1,1214,265.5,1212.6,265.2C1211.6,265,1210.2,265.1,1210.2,266.9C1210.2,267.1,1210.2,267.4,1210.3,267.6C1210.1,267.5,1210,267.6,1209.9,267.8C1209.6,268.2,1209.5,268.9,1209.5,269.7C1209.5,270.5,1209.7,271.3,1209.8,272.1C1209.8,272.2,1209.8,272.4,1209.9,272.5C1208.8,271.8,1209,274.1,1209.1,275.1C1209.3,276.3,1209.6,278.1,1210.7,278.8C1210.8,279.3,1210.9,279.9,1211.1,280.4C1211.3,281.2,1211.7,281.9,1212.1,282.6C1212.1,282.6,1212.1,282.6,1212.1,282.6C1212.1,283.4,1212.2,284.2,1212.2,285.1C1212.2,285.2,1212.2,285.3,1212.2,285.4C1212.2,285.3,1212,285.5,1212,285.5C1211.8,285.6,1211.7,285.6,1211.5,285.7C1211.5,285.7,1211.5,285.7,1211.5,285.7L1211,285.6L1211,285.6L1210.9,285.6C1210.6,285.5,1210.3,285.5,1210,285.4L1210,285.4L1210,285.4C1209.6,285.4,1209.2,285.3,1208.8,285.3C1208.1,285.3,1207.4,285.1,1206.7,285.1C1205,285.1,1202.7,286.5,1202.4,290.5C1202.3,292.4,1203.2,294.2,1204.8,295.2L1224.8,307.4ZM1221.5,282.5C1221.5,282.6,1221.5,282.7,1221.5,282.8C1221.5,282.7,1221.5,282.6,1221.5,282.5Z" fill="#344FC4" transform="translate(-1170.13,-221.465)"/>
        <g transform="translate(-1170.13,-221.465)">
            <path class="st0" d="M1288,309.5L1251.9,287.5L1251.9,299.7L1288,321.6Z" fill="#FFFFFF"/>
        </g>
        <g transform="translate(-1170.13,-221.465)">
            <path class="st0" d="M1251.9,308.7L1251.9,320.8L1306.6,354.2L1306.6,342Z" fill="#FFFFFF"/>
        </g>
        <ellipse class="st48" rx="26.7" ry="46.2" stroke-miterlimit="10" stroke-linecap="round" stroke="#FFFFFF" stroke-width="1.1929" stroke-linejoin="round" fill="none" transform="translate(-1148.94,431.802) rotate(-30.3113) scale(1,1) translate(1216.5,287.5)"/>
        <path class="st47" d="M1312.5,388.7L1330.5,407.7L1326.8,373.5Z" fill="#D9E9FF" transform="translate(-1170.13,-221.465)"/>
    </g>
    <g id="chat2" transform="translate(1158.97,406.347) scale(0,0) translate(-1.36511,-75.5675)" style="animation: 3s linear infinite both chat2_t;">
        <path class="st13" d="M1296.7,463.4C1303.1,467.1,1311.2,462.5,1311.2,455L1311.2,419.5C1311.2,414.5,1308.1,408.7,1304.4,406.5L1174.7,331.6C1171,329.4,1167.9,331.8,1167.9,336.7L1167.9,381.3C1167.9,386,1170.4,390.4,1174.5,392.7L1296.7,463.4Z" fill="#FCD007" transform="translate(-1157.6,-330.78)"/>
        <g transform="translate(-1157.6,-330.78)">
            <path class="st0" d="M1184.2,358.4L1184.2,370.5L1238.8,403.9L1238.8,391.7Z" fill="#FFFFFF"/>
        </g>
        <path class="st13" d="M1168.3,380L1157.6,405.1L1183.5,394.2Z" fill="#FCD007" transform="translate(-1157.6,-330.78)"/>
    </g>
    <g id="chat3" transform="translate(1330.85,576.562) scale(0,0) translate(-147.349,-153.383)" style="animation: 3s linear infinite both chat3_t;">
        <path class="st47" d="M1312.3,555.7C1318.7,559.4,1326.8,554.8,1326.8,547.3L1326.8,511.8C1326.8,506.8,1323.7,501,1320,498.8L1190.3,424C1186.6,421.8,1183.5,424.2,1183.5,429.1L1183.5,473.7C1183.5,478.4,1186,482.8,1190.1,485.1L1312.3,555.7Z" fill="#D9E9FF" transform="translate(-1183.5,-423.18)"/>
        <g transform="translate(-1183.5,-423.18)">
            <path class="st0" d="M1307,517.2L1271,495.3L1271,507.4L1307,529.4Z" fill="#FFFFFF"/>
        </g>
        <g transform="translate(-1183.5,-423.18)">
            <path class="st0" d="M1196.8,451L1196.8,463.1L1251.5,496.5L1251.5,484.3Z" fill="#FFFFFF"/>
        </g>
        <path class="st47" d="M1312.5,555L1330.5,574.1L1326.8,539.9Z" fill="#D9E9FF" transform="translate(-1183.5,-423.18)"/>
    </g>
    <g id="signal">
        <path class="st13" d="M236.3,559.8C229.1,562.9,223.1,570.3,220.8,578.1L213,571.5C217.8,561.3,226.2,552.3,235.9,548.1C245.6,543.9,254.3,545.5,259.6,551.4L252.4,564.4C249.7,558.8,243.4,556.7,236.3,559.8Z" fill="#FCD007" transform="translate(236.3,561.921) scale(0,0) translate(-236.3,-561.921)" style="animation: 3s linear infinite both a1_t;"/>
        <path class="st13" d="M272.2,528.8L265.4,541.1C258.4,534.7,247.6,533.2,235.7,538.4C223.8,543.5,213.4,554.1,206.8,566.4L199.5,560.2C200.4,558.7,201.3,557.2,202.3,555.7C210.7,543,222.4,532.3,235.4,526.7C249.9,520.4,263.1,521.7,272.2,528.8Z" fill="#FCD007" transform="translate(235.85,544.522) scale(0,0) translate(-235.85,-544.522)" style="animation: 3s linear infinite both a2_t;"/>
        <path class="st13" d="M242.3,582.6C242.2,582.8,242.1,582.9,241.9,583.1C241.7,583.4,241.5,583.6,241.2,583.9C241,584.1,240.8,584.3,240.6,584.6C240.4,584.8,240.2,585,240,585.2C239.7,585.4,239.4,585.7,239.1,585.9C238.9,586,238.8,586.2,238.6,586.3C238.1,586.6,237.6,586.9,237,587.1C236.5,587.3,235.9,587.5,235.4,587.6C235.2,587.6,235,587.7,234.9,587.7C234.6,587.7,234.3,587.8,234,587.8C233.8,587.8,233.6,587.8,233.4,587.8C233.2,587.8,233,587.7,232.7,587.7C232.5,587.7,232.2,587.6,232,587.5C231.9,587.5,231.7,587.4,231.6,587.3C230.3,586.7,229.3,585.6,228.8,584C228.8,584,228.8,584,228.8,584L228.8,584C228.7,583.7,228.6,583.4,228.6,583.1C228.5,582.7,228.4,582.2,228.4,581.8C228.4,581.2,228.4,580.5,228.5,579.9C229.2,575.5,232.5,570.9,236.5,569.2C240.6,567.4,244,569.1,244.9,572.8C245,573.3,245.1,573.9,245.1,574.5C245.1,575,245.1,575.5,245,576C245,576.4,244.9,576.7,244.8,577.1L244.8,577.1C244.8,577.1,244.8,577.1,244.8,577.1C244.6,577.9,244.4,578.6,244.1,579.4C243.7,580.4,243,581.5,242.3,582.6Z" fill="#FCD007" transform="translate(236.75,578.139) scale(0,0) translate(-236.75,-578.139)" style="animation: 3s linear infinite both a3_t;"/>
    </g>
    <g>
        <path class="st0" d="M553.4,602.3C553.4,604.8,551.6,605.9,549.4,604.6C547.2,603.3,545.4,600.2,545.4,597.7C545.4,595.2,547.2,594.1,549.4,595.4C551.6,596.6,553.4,599.7,553.4,602.3Z" fill="#FFFFFF"/>
        <path class="st0" d="M565.8,609.5C565.8,612,564,613.1,561.8,611.8C559.6,610.5,557.8,607.4,557.8,604.9C557.8,602.4,559.6,601.3,561.8,602.6C564,603.9,565.8,607,565.8,609.5Z" fill="#FFFFFF"/>
        <path class="st0" d="M578.1,616.8C578.1,619.3,576.3,620.4,574.1,619.1C571.9,617.8,570.1,614.7,570.1,612.2C570.1,609.7,571.9,608.6,574.1,609.9C576.3,611.1,578.1,614.2,578.1,616.8Z" fill="#FFFFFF"/>
    </g>
    <path class="st11" d="M777.5,389.1C777.5,389.1,1026.3,274,1141.6,516.6" stroke="#173891" stroke-miterlimit="10" fill="none"/>
    <path class="st11" d="M561.8,684.9C561.8,684.9,543.3,736.5,592.1,758.7" stroke="#173891" stroke-miterlimit="10" fill="none"/>
    <path class="st11" d="M664.1,425.4C664.1,425.4,556,495.6,604.7,581.3" stroke="#173891" stroke-miterlimit="10" fill="none"/>
    <g transform="translate(1135.09,578.321) scale(0,0) translate(0.772918,-50.4152)" style="animation: 3s linear infinite both a4_t;">
        <g transform="translate(-1135.86,-527.906)">
            <path class="st13" d="M1195.5,601.9L1148.3,574.6C1144.6,572.5,1141.7,566.8,1141.7,561.9L1141.7,533.7C1141.7,528.8,1144.7,526.6,1148.3,528.7L1195.5,556C1199.2,558.1,1202.1,563.8,1202.1,568.7L1202.1,596.9C1202.1,601.7,1199.1,604,1195.5,601.9Z" fill="#FCD007"/>
            <path class="st13" d="M1141.6,557.8C1141.6,557.8,1135.3,578,1135.9,577.6C1136.4,577.2,1152.8,572.5,1152.8,572.5L1141.6,557.8Z" fill="#FCD007"/>
        </g>
        <g transform="translate(-1135.86,-527.906)">
            <path class="st0" d="M1163.5,559.5C1163.5,562,1161.7,563.1,1159.5,561.8C1157.3,560.5,1155.5,557.4,1155.5,554.9C1155.5,552.4,1157.3,551.3,1159.5,552.6C1161.7,553.9,1163.5,557,1163.5,559.5Z" fill="#FFFFFF"/>
            <path class="st0" d="M1175.9,566.8C1175.9,569.3,1174.1,570.4,1171.9,569.1C1169.7,567.8,1167.9,564.7,1167.9,562.2C1167.9,559.7,1169.7,558.6,1171.9,559.9C1174.1,561.1,1175.9,564.2,1175.9,566.8Z" fill="#FFFFFF"/>
            <path class="st0" d="M1188.2,574C1188.2,576.5,1186.4,577.6,1184.2,576.3C1182,575,1180.2,571.9,1180.2,569.4C1180.2,566.9,1182,565.8,1184.2,567.1C1186.4,568.4,1188.2,571.5,1188.2,574Z" fill="#FFFFFF"/>
        </g>
    </g>
    <g transform="translate(714.073,436.607) scale(0,0) translate(-68.9728,-87.8014)" style="animation: 3s linear infinite both a5_t;">
        <g transform="translate(-645.1,-348.806)">
            <path class="st1" d="M698.9,422.8L651.7,395.5C648,393.4,645.1,387.7,645.1,382.8L645.1,354.6C645.1,349.7,648.1,347.5,651.7,349.6L698.9,376.9C702.6,379,705.5,384.7,705.5,389.6L705.5,417.8C705.5,422.6,702.5,424.9,698.9,422.8Z" fill="#E0EBFF"/>
            <path class="st1" d="M687.2,416.1C687.2,416.1,709.8,433.1,709.6,432.5C709.3,431.9,703.1,408,703.1,408L687.2,416.1Z" fill="#E0EBFF"/>
        </g>
        <path class="st0" d="M676.7,389.4L655.9,377.4C654.4,376.5,653.1,374.1,653.1,372.1L653.1,372.1C653.1,370.1,654.4,369.1,655.9,370L676.7,382C678.2,382.9,679.5,385.3,679.5,387.3L679.5,387.3C679.5,389.3,678.3,390.2,676.7,389.4Z" fill="#FFFFFF" transform="translate(-645.1,-348.806)"/>
        <path class="st0" d="M694.7,399.7L685,394.1C683.5,393.2,682.2,390.8,682.2,388.8L682.2,388.8C682.2,386.8,683.5,385.8,685,386.7L694.7,392.3C696.2,393.2,697.5,395.6,697.5,397.6L697.5,397.6C697.4,399.6,696.2,400.6,694.7,399.7Z" fill="#FFFFFF" transform="translate(-645.1,-348.806)"/>
    </g>
    <path class="st0" d="M669.5,790.4L648.7,778.4C647.2,777.5,645.9,775.1,645.9,773.1L645.9,773.1C645.9,771.1,647.2,770.1,648.7,771L669.5,783C671,783.9,672.3,786.3,672.3,788.3L672.3,788.3C672.3,790.4,671.1,791.3,669.5,790.4Z" fill="#FFFFFF"/>
    <path class="st0" d="M640.9,773.4L631.2,767.8C629.7,766.9,628.4,764.5,628.4,762.5L628.4,762.5C628.4,760.5,629.7,759.5,631.2,760.4L640.9,766C642.4,766.9,643.7,769.3,643.7,771.3L643.7,771.3C643.7,773.3,642.5,774.2,640.9,773.4Z" fill="#FFFFFF"/>
    <ellipse class="st11" rx="83.8" ry="47.4" stroke="#173891" stroke-miterlimit="10" fill="none" transform="translate(0,0) translate(1262.3,905.5)"/>
    <path class="st1" d="M1362.7,638.4L1313.7,665.2C1312.1,666.1,1310.8,668.6,1310.8,670.8L1310.8,704.8L1308.3,718.3L1321.4,704.4L1362.6,681.9C1364.2,681,1365.5,678.5,1365.5,676.3L1365.5,641C1365.6,638.6,1364.3,637.5,1362.7,638.4Z" fill="#E0EBFF"/>
    <g>
        <path class="st25" d="M1262.1,709.4C1262.1,709.4,1261.5,712.4,1258.3,710.6C1257.3,710,1249.1,700.1,1256.3,691C1260.9,685.3,1271.2,691.9,1271.2,691.9L1262.1,709.4Z" fill="#333333"/>
        <path class="st27" d="M1291.9,727.7L1297,743.9C1297.8,747.4,1301.8,749.1,1304.9,747.3L1311.6,743.3L1311.7,751.9L1302,757.8C1298.4,760,1293.7,758.6,1291.8,754.8C1288.6,748.1,1284.3,739,1284.3,738.8C1284.3,738.3,1291.9,727.7,1291.9,727.7Z" fill="#FFC2B0"/>
        <path class="st12" d="M1289,718.1L1298.4,738.2C1296.3,744.9,1292.5,748.2,1287.7,749.7L1285.1,723.1L1289,718.1Z" fill="#1B75BB"/>
        <path class="st27" d="M1226.8,813.4L1226.8,813.4C1228.6,813.5,1230.1,812,1230.2,810.3L1230.4,805.1C1230.5,803.3,1229,801.8,1227.3,801.7L1227.3,801.7C1225.5,801.6,1224,803.1,1223.9,804.8L1223.7,810C1223.6,811.8,1225,813.3,1226.8,813.4Z" fill="#FFC2B0"/>
        <g>
            <path class="st28" d="M1297.4,757.6L1308.2,754.7C1308.9,754.6,1309.5,753.9,1309.7,753.1L1314.3,733C1314.5,732.2,1314.1,731.7,1313.4,731.8L1302.3,733.8C1301.6,733.9,1301,734.6,1300.8,735.4L1296.2,755.5C1296.1,756,1296.3,756.4,1296.6,756.7L1297.4,757.6Z" fill="#97CBFF"/>
            <path class="st28" d="M1307.7,740C1307.7,740,1309.5,753.9,1309.7,753.2L1315.2,733.3L1314.1,732C1313.9,731.9,1313.7,731.8,1313.4,731.8L1302.3,733.8C1302,733.9,1301.6,734.1,1301.4,734.3L1307.7,740Z" fill="#97CBFF"/>
            <g>
                <g>
                    <path class="st0" d="M1298.2,757.9L1309.3,755.9C1310,755.8,1310.6,755.1,1310.8,754.3L1315.4,734.2C1315.6,733.4,1315.2,732.9,1314.5,733L1303.5,735C1302.8,735.1,1302.2,735.9,1302,736.6L1297.4,756.7C1297.1,757.5,1297.5,758,1298.2,757.9Z" fill="#FFFFFF"/>
                </g>
            </g>
            <path class="st29" d="M1298.8,757.8L1309.5,755.9C1310.1,755.8,1310.8,755.1,1310.9,754.3L1315.4,734.8C1315.6,734.1,1315.2,733.5,1314.6,733.7L1303.9,735.6C1303.3,735.7,1302.6,736.4,1302.5,737.2L1298,756.7C1297.8,757.4,1298.2,757.9,1298.8,757.8Z" fill="#426CDB"/>
            <g>
                <g>
                    <path class="st0" d="M1303.9,740.1L1303.9,740.1C1304.3,740,1304.7,739.6,1304.8,739.2L1305.3,737C1305.4,736.6,1305.2,736.3,1304.8,736.4L1304.8,736.4C1304.4,736.5,1304,736.9,1303.9,737.3L1303.4,739.5C1303.3,739.9,1303.5,740.2,1303.9,740.1Z" fill="#FFFFFF"/>
                </g>
            </g>
            <path class="st30" d="M1304.2,737.4C1304.2,737.7,1304.4,737.8,1304.6,737.7C1304.8,737.6,1305.1,737.3,1305.1,737C1305.1,736.7,1304.9,736.6,1304.7,736.7C1304.5,736.8,1304.2,737.1,1304.2,737.4Z" fill="#2C1F9C"/>
        </g>
        <ellipse class="st33" rx="21.8" ry="43.8" fill="#A8C4E5" opacity="0.4" transform="translate(333.064,2150.83) rotate(-88.984) scale(0.999957,0.999957) translate(1261.2,905.9)"/>
        <path class="st30" d="M1246.9,916.5L1248.7,905.3C1248.5,904.1,1246.7,902.5,1245.1,901.9C1244.4,901.6,1243.2,902,1242.3,902.7L1241.2,901.6C1238.4,903.9,1238.1,905.9,1238.4,907.5L1239.5,918.1C1239.8,919.7,1241.5,920.9,1243.4,920.8L1243.9,920.8C1245.8,920.8,1246.5,918.7,1246.9,916.5Z" fill="#2C1F9C"/>
        <path class="st30" d="M1290.4,895.4L1280.5,884.8C1279.1,883.9,1276.1,883.5,1273.9,883.7C1272.9,883.8,1272.2,884.6,1272.1,885.5L1271.9,887.6C1271.5,890.6,1271.7,891,1273.5,892.1L1284.1,898.8C1285.9,899.9,1288.7,900.1,1290.3,899.3L1290.8,899.1C1292.3,898.1,1292.2,896.5,1290.4,895.4Z" fill="#2C1F9C"/>
        <rect class="st13" width="29.6" height="18.7" fill="#FCD007" transform="translate(2682.29,1272.15) rotate(166.201) scale(0.999959,0.999959) translate(1249.4,789)"/>
        <path class="st39" d="M1239.4,903.4C1239.3,907.2,1248.5,907.5,1248.6,903.8L1249.1,891.5L1239.9,891.1L1239.4,903.4Z" fill="#C6D2F2"/>
        <path class="st13" d="M1238.5,895.6C1238.4,901.3,1251.1,900.5,1251,897.4C1255.7,853.6,1259,811,1261.2,769.3L1237.6,768.7C1238.1,811.2,1238.9,892.6,1238.5,895.6Z" fill="#FCD007"/>
        <path class="st39" d="M1272.1,884.6C1272,888,1281.2,888.8,1281.3,885.4L1281.5,874.2L1272.3,873.4L1272.1,884.6Z" fill="#C6D2F2"/>
        <path class="st13" d="M1270.7,879.5C1270.5,884.2,1283.1,883.9,1283,879.9C1287.7,841.9,1288.8,805,1287.2,768.9L1263.9,770.4C1270.4,808,1272.9,844.3,1270.7,879.5Z" fill="#FCD007"/>
        <path class="st12" d="M1290,777.9C1289.4,763.1,1290.2,752.4,1290.8,736.6C1294.3,696.7,1261.5,710.4,1259.6,711.3C1239.2,720.5,1237.8,722.1,1237.8,733.9C1236.7,753.4,1234.6,776.8,1234.5,786.4C1237.9,800.1,1284.9,787.4,1290,777.9Z" fill="#1B75BB"/>
        <path class="st27" d="M1263.2,721.3L1263.2,721.3C1260.8,721.1,1259,718.9,1259.2,716.5L1260,707.4C1260.2,705,1262.4,703.2,1264.8,703.4L1264.8,703.4C1267.2,703.6,1269,705.8,1268.8,708.2L1268,717.3C1267.7,719.7,1265.6,721.5,1263.2,721.3Z" fill="#FFC2B0"/>
        <path class="st27" d="M1261.6,704.8C1261,711,1264.6,714.1,1269.5,711.8C1274.4,709.5,1278.8,702.7,1279.4,696.5C1280,690.3,1276.4,687.2,1271.5,689.5C1266.6,691.8,1262.1,698.6,1261.6,704.8Z" fill="#FFC2B0"/>
        <path class="st27" d="M1256.4,700.7C1255.8,706.9,1261,711.2,1265.9,708.9C1270.8,706.6,1275.2,699.8,1275.8,693.6C1276.4,687.4,1272.8,684.3,1267.9,686.6C1263.1,688.9,1257,694.6,1256.4,700.7Z" fill="#FFC2B0"/>
        <path class="st27" d="M1255.3,702.9C1255.2,704.4,1256.3,705.7,1257.8,705.9C1259.3,706,1260.6,704.9,1260.8,703.4C1260.9,701.9,1259.8,700.6,1258.3,700.4C1256.7,700.3,1255.4,701.4,1255.3,702.9Z" fill="#FFC2B0"/>
        <path class="st25" d="M1272.1,692C1272.1,692,1269.7,706.2,1255.5,700.2C1255.5,700.2,1249,690.4,1260.6,683.9C1270.8,678.2,1277,689.5,1277,689.5L1272.1,692Z" fill="#333333"/>
        <path class="st25" d="M1278.8,699.4C1278.8,699.4,1277.9,694.4,1272.1,692L1277,689.5C1277,689.5,1281.7,690.9,1278.8,699.4Z" fill="#333333"/>
        <path class="st27" d="M1244.2,737L1233.1,769.4L1230.3,805L1223.8,803L1223.4,767.1L1229.4,745.3Z" fill="#FFC2B0"/>
        <path class="st12" d="M1241.9,720.8C1241.9,720.8,1232.4,727.7,1227.9,748.6L1242.8,753.8L1249.1,731.8L1241.9,720.8Z" fill="#1B75BB"/>
        <path class="st27" d="M1310.8,751.4L1310.8,751.4C1312.2,751.7,1313.7,750.8,1314,749.4L1315,745.2C1315.3,743.8,1314.4,742.3,1313,742L1313,742C1311.6,741.7,1310.1,742.6,1309.8,744L1308.8,748.2C1308.5,749.7,1309.4,751.1,1310.8,751.4Z" fill="#FFC2B0"/>
    </g>
    <g>
        <path class="st0" d="M1348.4,669.7C1348.4,672.2,1350.2,673.3,1352.4,672C1354.6,670.7,1356.4,667.6,1356.4,665.1C1356.4,662.6,1354.6,661.5,1352.4,662.8C1350.2,664.1,1348.4,667.2,1348.4,669.7Z" fill="#FFFFFF"/>
        <path class="st0" d="M1336,677C1336,679.5,1337.8,680.6,1340,679.3C1342.2,678,1344,674.9,1344,672.4C1344,669.9,1342.2,668.8,1340,670.1C1337.8,671.4,1336,674.4,1336,677Z" fill="#FFFFFF"/>
        <path class="st0" d="M1323.7,684.2C1323.7,686.7,1325.5,687.8,1327.7,686.5C1329.9,685.2,1331.7,682.1,1331.7,679.6C1331.7,677.1,1329.9,676,1327.7,677.3C1325.5,678.6,1323.7,681.7,1323.7,684.2Z" fill="#FFFFFF"/>
    </g>
    <path class="st11" d="M1196.8,609.9C1196.8,609.9,1208.6,659.7,1288.9,672.4" stroke="#173891" stroke-miterlimit="10" fill="none"/>
    <path class="st11" d="M1388.5,718.1C1388.5,718.1,1499.6,773.2,1423.4,853.6" stroke="#173891" stroke-miterlimit="10" fill="none"/>
    <path class="st11" d="M152.4,795.1C152.4,795.1,65.6,917.9,189.4,976.8" stroke="#173891" stroke-miterlimit="10" fill="none"/>
    <path class="st11" d="M509.8,568.9C505,568.1,430.6,493.8,323.1,566.2" stroke="#173891" stroke-miterlimit="10" fill="none"/>
    <path class="st11" d="M506.4,911.3C506.4,911.3,646.5,890.9,636.1,815.1" stroke="#173891" stroke-miterlimit="10" fill="none"/>
    <path class="st1" d="M1470.7,136.7C1480.8,136.7,1490.6,135.6,1500,133.5L1500,0L1334,0C1334,75.5,1395.2,136.7,1470.7,136.7Z" fill="#E0EBFF"/>
    <path class="st1" d="M96.4,20.7C96.4,13.6,95.6,6.7,94.2,0L0,0L0,117.1C53.2,117.1,96.4,73.9,96.4,20.7Z" fill="#E0EBFF"/>
    <g>
        <path class="st17" d="M870.1,650.4L870.8,663.2L865.5,666L864.8,653.1Z" fill="#BAD4FF"/>
        <path class="st50" d="M879.5,655.7L880.1,668.5L870.8,663.2L870.1,650.4Z" fill="#A1C1E6"/>
        <path class="st17" d="M886.1,652.3L886.8,665.1L880.1,668.5L879.5,655.7Z" fill="#BAD4FF"/>
        <path class="st17" d="M858.1,656.5L858.8,669.4L852.6,672.5L851.9,659.7Z" fill="#BAD4FF"/>
        <path class="st17" d="M873.6,658.1L874.3,671L868.1,674.1L867.5,661.2Z" fill="#BAD4FF"/>
        <path class="st17" d="M867.5,661.2L868.1,674.1L867.6,674.4L867,661.5Z" fill="#BAD4FF"/>
        <path class="st50" d="M867,661.5L867.6,674.4L858.8,669.4L858.1,656.5Z" fill="#A1C1E6"/>
        <path class="st17" d="M898.4,659.2L899.1,672.1L891,678.9L890.3,666Z" fill="#BAD4FF"/>
        <g>
            <defs>
                <path id="SVGID_41_" d="M884.8,663.1L885.5,676C882.4,677.5,879.3,679,876.5,680.3L875.8,667.4C878.5,666.1,881.7,664.6,884.8,663.1Z"/>
                <clipPath id="SVGID_4_">
                    <use xlink:href="#SVGID_43_" overflow="visible"/>
                </clipPath>
                <clipPath id="SVGID_2_">
                    <use xlink:href="#SVGID_41_" overflow="visible"/>
                </clipPath>
                <clipPath id="SVGID_8_">
                    <use xlink:href="#SVGID_47_" overflow="visible"/>
                </clipPath>
                <clipPath id="SVGID_6_">
                    <use xlink:href="#SVGID_45_" overflow="visible"/>
                </clipPath>
                <clipPath id="SVGID_12_">
                    <use xlink:href="#SVGID_51_" overflow="visible"/>
                </clipPath>
                <clipPath id="SVGID_10_">
                    <use xlink:href="#SVGID_49_" overflow="visible"/>
                </clipPath>
                <clipPath id="SVGID_16_">
                    <use xlink:href="#SVGID_55_" overflow="visible"/>
                </clipPath>
                <clipPath id="SVGID_14_">
                    <use xlink:href="#SVGID_53_" overflow="visible"/>
                </clipPath>
                <clipPath id="SVGID_20_">
                    <use xlink:href="#SVGID_59_" overflow="visible"/>
                </clipPath>
                <clipPath id="SVGID_18_">
                    <use xlink:href="#SVGID_57_" overflow="visible"/>
                </clipPath>
            </defs>
            <g class="st51" clip-path="url(#SVGID_2_)">
                <defs>
                    <rect id="SVGID_43_" width="17.3" height="9.8" transform="translate(194.02,1540.68) rotate(-89.0236) scale(1.00005,1.00005) translate(871.9,666.8)"/>
                </defs>
                <path class="st52" d="M884.8,663.1L885.5,676C882.4,677.5,879.3,679,876.5,680.3L875.8,667.4C878.5,666.1,881.7,664.6,884.8,663.1" fill="#BAD4FF" clip-path="url(#SVGID_4_)"/>
            </g>
        </g>
        <path class="st0" d="M870.6,643.4L886.1,652.3L879.5,655.7L870.1,650.4L864.8,653.1L873.6,658.1L867.5,661.2L867,661.5L858.1,656.5L851.9,659.7L861.8,665.2L855.1,668.7L839,659.5Z" fill="#FFFFFF"/>
        <path class="st17" d="M861.8,665.2L862.4,678.1L855.7,681.5L855.1,668.7Z" fill="#BAD4FF"/>
        <path class="st50" d="M855.1,668.7L855.7,681.5L839.6,672.4L839,659.5Z" fill="#A1C1E6"/>
        <g>
            <defs>
                <path id="SVGID_45_" d="M890.3,666L891,678.9C888.7,680.7,886.2,682.7,883.7,684.5L883,671.6C885.5,669.8,888,667.8,890.3,666Z"/>
            </defs>
            <g class="st53" clip-path="url(#SVGID_6_)">
                <defs>
                    <rect id="SVGID_47_" width="18.5" height="8.1" transform="translate(196.735,1550.58) rotate(-89.0236) scale(1.00005,1.00005) translate(877.7,671.2)"/>
                </defs>
                <path class="st54" d="M890.3,666L891,678.9C888.7,680.7,886.2,682.7,883.7,684.5L883,671.6C885.5,669.8,888,667.8,890.3,666" fill="#BAD4FF" clip-path="url(#SVGID_8_)"/>
            </g>
        </g>
        <path class="st50" d="M863.2,673.3L863.9,686.2L858.1,682.8L857.4,670Z" fill="#A1C1E6"/>
        <path class="st17" d="M875.8,667.4L876.4,680.2L863.9,686.2L863.2,673.3Z" fill="#BAD4FF"/>
        <g>
            <defs>
                <path id="SVGID_49_" d="M899.3,670.8L900,683.7C896.4,684.8,892.7,686,889.5,686.9L888.8,674C892.1,673.1,895.8,671.9,899.3,670.8Z"/>
            </defs>
            <g class="st55" clip-path="url(#SVGID_10_)">
                <defs>
                    <rect id="SVGID_51_" width="16.3" height="11.3" transform="translate(200.406,1561.52) rotate(-89.0236) scale(1.00005,1.00005) translate(886.3,673.2)"/>
                </defs>
                <path class="st56" d="M899.3,670.8L900,683.7C896.4,684.8,892.7,686,889.5,686.9L888.8,674C892.1,673.1,895.8,671.9,899.3,670.8" fill="#BAD4FF" clip-path="url(#SVGID_12_)"/>
            </g>
        </g>
        <path class="st50" d="M873.5,678.6L874.2,691.4L869.3,688.7L868.7,675.8Z" fill="#A1C1E6"/>
        <path class="st17" d="M888.8,674L889.4,686.9L874.2,691.4L873.5,678.6Z" fill="#BAD4FF"/>
        <g>
            <defs>
                <path id="SVGID_53_" d="M921.1,680.4L921.8,693.3C920.2,693.9,918.5,694.5,917,694.9L916.3,682C917.8,681.5,919.5,680.9,921.1,680.4Z"/>
            </defs>
            <g class="st57" clip-path="url(#SVGID_14_)">
                <defs>
                    <rect id="SVGID_55_" width="14.6" height="5.6" transform="translate(215.862,1594.83) rotate(-89.0236) scale(1.00005,1.00005) translate(911.8,684.8)"/>
                </defs>
                <path class="st58" d="M921.1,680.4L921.8,693.3C920.2,693.9,918.5,694.5,917,694.9L916.3,682C917.8,681.5,919.5,680.9,921.1,680.4" fill="#BAD4FF" clip-path="url(#SVGID_16_)"/>
            </g>
        </g>
        <path class="st0" d="M890.5,654.8L898.4,659.3L890.3,666.1C888,667.9,885.5,669.9,883,671.7C886.6,670.5,890.5,669.2,894,668.2L907.2,664.3L914.9,668.7L884.7,685.6L878.6,682.1L890.4,675.7C893,674.3,896.1,672.6,899.3,670.9C895.7,672,892,673.2,888.8,674.1L873.5,678.7L868.7,676L878.3,668.3C880.2,666.7,882.5,665,884.8,663.3C881.7,664.8,878.6,666.3,875.8,667.6L863.3,673.5L857.5,670.2L890.5,654.8Z" fill="#FFFFFF"/>
        <path class="st50" d="M884.7,685.4L885.3,698.3L879.2,694.9L878.6,682Z" fill="#A1C1E6"/>
        <path class="st17" d="M914.9,668.6L915.5,681.4L885.3,698.3L884.7,685.4Z" fill="#BAD4FF"/>
        <path class="st17" d="M916.3,682L917,694.9L909.9,697.1L909.2,684.2Z" fill="#BAD4FF"/>
        <path class="st17" d="M902,686.8L902.7,699.7L893.1,702.7L892.5,689.9Z" fill="#BAD4FF"/>
        <path class="st50" d="M892.5,689.9L893.1,702.7L886.7,699.1L886,686.2Z" fill="#A1C1E6"/>
        <path class="st50" d="M908.3,690.4L908.9,703.3L902.7,699.7L902,686.8Z" fill="#A1C1E6"/>
        <path class="st17" d="M932.9,678.7L933.5,691.6L909.6,712.1L909,699.2Z" fill="#BAD4FF"/>
        <path class="st0" d="M925.2,674.4L932.9,678.8L909,699.2L902.3,695.4L908.3,690.4L902.1,686.9L892.6,689.9L886.1,686.2L925.2,674.4ZM917.9,682.9C918.9,682.1,920,681.2,921.1,680.4C919.5,681,917.8,681.6,916.3,682L909.2,684.2L913.4,686.6L917.9,682.9" fill="#FFFFFF"/>
        <path class="st50" d="M909,699.2L909.6,712.1L902.9,708.3L902.3,695.4Z" fill="#A1C1E6"/>
        <path class="st17" d="M949,687.9L949.7,700.8L924.9,713.4L924.3,700.5Z" fill="#BAD4FF"/>
        <path class="st17" d="M933.8,705.9L934.5,718.8L927.6,722.3L927,709.4Z" fill="#BAD4FF"/>
        <path class="st0" d="M942.8,684.4L949,687.9L924.3,700.5L933.8,705.9L927,709.4L911.2,700.5L942.3,684.6Z" fill="#FFFFFF"/>
        <path class="st50" d="M927,709.4L927.6,722.3L911.9,713.4L911.2,700.5Z" fill="#A1C1E6"/>
        <path class="st17" d="M967.2,698.2L967.8,711.1L936.3,727.2L935.6,714.3Z" fill="#BAD4FF"/>
        <path class="st17" d="M970.6,707.4L971.3,720.2L965.3,723.3L964.7,710.4Z" fill="#BAD4FF"/>
        <path class="st0" d="M960.9,694.7L966.8,698L967.2,698.2L935.6,714.3L929.4,710.8Z" fill="#FFFFFF"/>
        <path class="st50" d="M935.6,714.3L936.3,727.2L930,723.6L929.4,710.8Z" fill="#A1C1E6"/>
        <path class="st17" d="M986.5,709.2L987.1,722L980.4,725.5L979.8,712.6Z" fill="#BAD4FF"/>
        <path class="st50" d="M979.8,712.6L980.4,725.5L971.3,720.2L970.6,707.4Z" fill="#A1C1E6"/>
        <path class="st17" d="M973.3,715.3L973.9,728.1L967.3,731.5L966.6,718.7Z" fill="#BAD4FF"/>
        <path class="st50" d="M966.6,718.7L967.3,731.5L958.7,726.7L958,713.8Z" fill="#A1C1E6"/>
        <path class="st17" d="M958,713.8L958.7,726.7L946.4,732.9L945.7,720.1Z" fill="#BAD4FF"/>
        <path class="st50" d="M945.7,720.1L946.4,732.9L940.1,729.4L939.5,716.5Z" fill="#A1C1E6"/>
        <path class="st0" d="M971,700.4L986.5,709.2L979.8,712.6L970.6,707.4L964.7,710.4L973.3,715.3L966.6,718.7L958,713.8L945.7,720.1L939.5,716.5L970.5,700.7Z" fill="#FFFFFF"/>
        <path class="st50" d="M994.6,713.8L995.3,726.6L990.2,732L989.5,719.1Z" fill="#A1C1E6"/>
        <g>
            <defs>
                <path id="SVGID_57_" d="M989.5,719.1L990.2,732C989,733.2,988.1,734.2,987,735.3L986.3,722.4C987.3,721.3,988.3,720.4,989.5,719.1Z"/>
            </defs>
            <g class="st59" clip-path="url(#SVGID_18_)">
                <defs>
                    <rect id="SVGID_59_" width="16.2" height="4" transform="translate(244.311,1702.87) rotate(-89.0236) scale(1.00005,1.00005) translate(980.1,725.2)"/>
                </defs>
                <path class="st60" d="M989.5,719.1L990.2,732C989,733.2,988.1,734.2,987,735.3L986.3,722.4C987.3,721.3,988.3,720.4,989.5,719.1" fill="#BAD4FF" clip-path="url(#SVGID_20_)"/>
            </g>
        </g>
        <path class="st50" d="M1009.7,722.3L1010.3,735.2L983.7,740L983.1,727.1Z" fill="#A1C1E6"/>
        <path class="st50" d="M964.1,730.5L964.8,743.4L964.4,743.2L963.7,730.3Z" fill="#A1C1E6"/>
        <path class="st17" d="M983.1,727.1L983.7,740L970.6,746.7L970,733.8Z" fill="#BAD4FF"/>
        <path class="st50" d="M970,733.8L970.6,746.7L964.8,743.4L964.1,730.5Z" fill="#A1C1E6"/>
        <path class="st0" d="M987.5,709.7L994.6,713.7L989.5,719.1C988.3,720.3,987.4,721.3,986.3,722.4C988.2,721.9,990.2,721.4,992.5,720.8L1002.7,718.3L1009.7,722.3L983.1,727.1L970,733.8L964.2,730.5L963.8,730.3L976.7,723.7L987.5,709.7Z" fill="#FFFFFF"/>
    </g>
    <g id="signal-2" transform="translate(1298.8,-355.46) scale(-1,1)">
        <path class="st13" d="M236.3,559.8C229.1,562.9,223.1,570.3,220.8,578.1L213,571.5C217.8,561.3,226.2,552.3,235.9,548.1C245.6,543.9,254.3,545.5,259.6,551.4L252.4,564.4C249.7,558.8,243.4,556.7,236.3,559.8Z" fill="#FCD007" transform="translate(236.3,561.921) scale(0,0) translate(-236.3,-561.921)" style="animation: 3s linear infinite both a6_t;"/>
        <path class="st13" d="M272.2,528.8L265.4,541.1C258.4,534.7,247.6,533.2,235.7,538.4C223.8,543.5,213.4,554.1,206.8,566.4L199.5,560.2C200.4,558.7,201.3,557.2,202.3,555.7C210.7,543,222.4,532.3,235.4,526.7C249.9,520.4,263.1,521.7,272.2,528.8Z" fill="#FCD007" transform="translate(235.85,544.522) scale(0,0) translate(-235.85,-544.522)" style="animation: 3s linear infinite both a7_t;"/>
        <path class="st13" d="M242.3,582.6C242.2,582.8,242.1,582.9,241.9,583.1C241.7,583.4,241.5,583.6,241.2,583.9C241,584.1,240.8,584.3,240.6,584.6C240.4,584.8,240.2,585,240,585.2C239.7,585.4,239.4,585.7,239.1,585.9C238.9,586,238.8,586.2,238.6,586.3C238.1,586.6,237.6,586.9,237,587.1C236.5,587.3,235.9,587.5,235.4,587.6C235.2,587.6,235,587.7,234.9,587.7C234.6,587.7,234.3,587.8,234,587.8C233.8,587.8,233.6,587.8,233.4,587.8C233.2,587.8,233,587.7,232.7,587.7C232.5,587.7,232.2,587.6,232,587.5C231.9,587.5,231.7,587.4,231.6,587.3C230.3,586.7,229.3,585.6,228.8,584C228.8,584,228.8,584,228.8,584L228.8,584C228.7,583.7,228.6,583.4,228.6,583.1C228.5,582.7,228.4,582.2,228.4,581.8C228.4,581.2,228.4,580.5,228.5,579.9C229.2,575.5,232.5,570.9,236.5,569.2C240.6,567.4,244,569.1,244.9,572.8C245,573.3,245.1,573.9,245.1,574.5C245.1,575,245.1,575.5,245,576C245,576.4,244.9,576.7,244.8,577.1L244.8,577.1C244.8,577.1,244.8,577.1,244.8,577.1C244.6,577.9,244.4,578.6,244.1,579.4C243.7,580.4,243,581.5,242.3,582.6Z" fill="#FCD007" transform="translate(236.75,578.139) scale(0,0) translate(-236.75,-578.139)" style="animation: 3s linear infinite both a8_t;"/>
    </g>
</svg>
